risc16/sim_risc16.log
# vsim -c sim_risc16 -l sim_risc16.log -wlf sim_risc16.wlf -do "add wave -r /sim_risc16/risc16_inst/* /sim_risc16/mem; run -all" 
# Start time: 04:42:51 on Jan 13,2021
# Loading sv_std.std
# Loading work.sim_risc16
# Loading work.risc16_sv_unit
# Loading work.risc16
# Loading work.alu16
# Loading work.reg_file
# add wave -r /sim_risc16/risc16_inst/* /sim_risc16/mem
# (vsim-4077) Logging very large object: /sim_risc16/mem
#  run -all
# ==== clock: 0 state: IF ====
#  pc:0000 ir:0000000000000000 treg1:0000 treg2:0000 rdr:0000 wdr:0000 oe:1 we:0
#  sbus1:0000 sbus2:0002 dbus:0002 addr:0000 din:3602 dout:0000 led:000000
#  regs: 0000 0000 0000 0000 0000 0000 0000 0000
#  mem[00-07]: 36 02 37 01 5f 10 35 01
#  mem[08-0f]: 00 b1 25 02 04 e1 04 a5
#  mem[10-17]: 8c 0c 02 b1 01 41 01 05
#  mem[18-1f]: 99 02 00 41 c7 ec 00 d0
#  mem[20-27]: c7 fe xx xx xx xx xx xx
# 
# ==== clock: 1 state: RF ====
#  pc:0002 ir:0011011000000010 treg1:0000 treg2:0000 rdr:0000 wdr:0000 oe:0 we:0
#  sbus1:xxxx sbus2:xxxx dbus:xxxx addr:xxxx din:xxxx dout:xxxx led:000000
#  regs: 0000 0000 0000 0000 0000 0000 0000 0000
#  mem[00-07]: 36 02 37 01 5f 10 35 01
#  mem[08-0f]: 00 b1 25 02 04 e1 04 a5
#  mem[10-17]: 8c 0c 02 b1 01 41 01 05
#  mem[18-1f]: 99 02 00 41 c7 ec 00 d0
#  mem[20-27]: c7 fe xx xx xx xx xx xx
# 
# ==== clock: 2 state: EX ====
#  pc:0002 ir:0011011000000010 treg1:0000 treg2:0000 rdr:0000 wdr:0000 oe:0 we:0
#  sbus1:0000 sbus2:0002 dbus:0200 addr:0000 din:xxxx dout:xxxx led:000000
#  regs: 0000 0000 0000 0000 0000 0000 0000 0000
#  mem[00-07]: 36 02 37 01 5f 10 35 01
#  mem[08-0f]: 00 b1 25 02 04 e1 04 a5
#  mem[10-17]: 8c 0c 02 b1 01 41 01 05
#  mem[18-1f]: 99 02 00 41 c7 ec 00 d0
#  mem[20-27]: c7 fe xx xx xx xx xx xx
# 
# ==== clock: 3 state: IF ====
#  pc:0002 ir:0011011000000010 treg1:0000 treg2:0000 rdr:0000 wdr:0000 oe:1 we:0
#  sbus1:0002 sbus2:0002 dbus:0004 addr:0002 din:3701 dout:0000 led:000000
#  regs: 0000 0000 0000 0000 0000 0000 0200 0000
#  mem[00-07]: 36 02 37 01 5f 10 35 01
#  mem[08-0f]: 00 b1 25 02 04 e1 04 a5
#  mem[10-17]: 8c 0c 02 b1 01 41 01 05
#  mem[18-1f]: 99 02 00 41 c7 ec 00 d0
#  mem[20-27]: c7 fe xx xx xx xx xx xx
# 
# ==== clock: 4 state: RF ====
#  pc:0004 ir:0011011100000001 treg1:0000 treg2:0000 rdr:0000 wdr:0000 oe:0 we:0
#  sbus1:xxxx sbus2:xxxx dbus:xxxx addr:xxxx din:xxxx dout:xxxx led:000000
#  regs: 0000 0000 0000 0000 0000 0000 0200 0000
#  mem[00-07]: 36 02 37 01 5f 10 35 01
#  mem[08-0f]: 00 b1 25 02 04 e1 04 a5
#  mem[10-17]: 8c 0c 02 b1 01 41 01 05
#  mem[18-1f]: 99 02 00 41 c7 ec 00 d0
#  mem[20-27]: c7 fe xx xx xx xx xx xx
# 
# ==== clock: 5 state: EX ====
#  pc:0004 ir:0011011100000001 treg1:0000 treg2:0000 rdr:0000 wdr:0000 oe:0 we:0
#  sbus1:0000 sbus2:0001 dbus:0100 addr:0000 din:xxxx dout:xxxx led:000000
#  regs: 0000 0000 0000 0000 0000 0000 0200 0000
#  mem[00-07]: 36 02 37 01 5f 10 35 01
#  mem[08-0f]: 00 b1 25 02 04 e1 04 a5
#  mem[10-17]: 8c 0c 02 b1 01 41 01 05
#  mem[18-1f]: 99 02 00 41 c7 ec 00 d0
#  mem[20-27]: c7 fe xx xx xx xx xx xx
# 
# ==== clock: 6 state: IF ====
#  pc:0004 ir:0011011100000001 treg1:0000 treg2:0000 rdr:0000 wdr:0000 oe:1 we:0
#  sbus1:0004 sbus2:0002 dbus:0006 addr:0004 din:5f10 dout:0000 led:000000
#  regs: 0000 0000 0000 0000 0000 0000 0200 0100
#  mem[00-07]: 36 02 37 01 5f 10 35 01
#  mem[08-0f]: 00 b1 25 02 04 e1 04 a5
#  mem[10-17]: 8c 0c 02 b1 01 41 01 05
#  mem[18-1f]: 99 02 00 41 c7 ec 00 d0
#  mem[20-27]: c7 fe xx xx xx xx xx xx
# 
# ==== clock: 7 state: RF ====
#  pc:0006 ir:0101111100010000 treg1:0000 treg2:0000 rdr:0000 wdr:0000 oe:0 we:0
#  sbus1:xxxx sbus2:xxxx dbus:xxxx addr:xxxx din:xxxx dout:xxxx led:000000
#  regs: 0000 0000 0000 0000 0000 0000 0200 0100
#  mem[00-07]: 36 02 37 01 5f 10 35 01
#  mem[08-0f]: 00 b1 25 02 04 e1 04 a5
#  mem[10-17]: 8c 0c 02 b1 01 41 01 05
#  mem[18-1f]: 99 02 00 41 c7 ec 00 d0
#  mem[20-27]: c7 fe xx xx xx xx xx xx
# 
# ==== clock: 8 state: EX ====
#  pc:0006 ir:0101111100010000 treg1:0100 treg2:0000 rdr:0000 wdr:0000 oe:0 we:0
#  sbus1:0100 sbus2:0010 dbus:0110 addr:0000 din:xxxx dout:xxxx led:000000
#  regs: 0000 0000 0000 0000 0000 0000 0200 0100
#  mem[00-07]: 36 02 37 01 5f 10 35 01
#  mem[08-0f]: 00 b1 25 02 04 e1 04 a5
#  mem[10-17]: 8c 0c 02 b1 01 41 01 05
#  mem[18-1f]: 99 02 00 41 c7 ec 00 d0
#  mem[20-27]: c7 fe xx xx xx xx xx xx
# 
# ==== clock: 9 state: IF ====
#  pc:0006 ir:0101111100010000 treg1:0100 treg2:0000 rdr:0000 wdr:0000 oe:1 we:0
#  sbus1:0006 sbus2:0002 dbus:0008 addr:0006 din:3501 dout:0000 led:000000
#  regs: 0000 0000 0000 0000 0000 0000 0200 0110
#  mem[00-07]: 36 02 37 01 5f 10 35 01
#  mem[08-0f]: 00 b1 25 02 04 e1 04 a5
#  mem[10-17]: 8c 0c 02 b1 01 41 01 05
#  mem[18-1f]: 99 02 00 41 c7 ec 00 d0
#  mem[20-27]: c7 fe xx xx xx xx xx xx
# 
# ==== clock: 10 state: RF ====
#  pc:0008 ir:0011010100000001 treg1:0100 treg2:0000 rdr:0000 wdr:0000 oe:0 we:0
#  sbus1:xxxx sbus2:xxxx dbus:xxxx addr:xxxx din:xxxx dout:xxxx led:000000
#  regs: 0000 0000 0000 0000 0000 0000 0200 0110
#  mem[00-07]: 36 02 37 01 5f 10 35 01
#  mem[08-0f]: 00 b1 25 02 04 e1 04 a5
#  mem[10-17]: 8c 0c 02 b1 01 41 01 05
#  mem[18-1f]: 99 02 00 41 c7 ec 00 d0
#  mem[20-27]: c7 fe xx xx xx xx xx xx
# 
# ==== clock: 11 state: EX ====
#  pc:0008 ir:0011010100000001 treg1:0000 treg2:0000 rdr:0000 wdr:0000 oe:0 we:0
#  sbus1:0000 sbus2:0001 dbus:0100 addr:0000 din:xxxx dout:xxxx led:000000
#  regs: 0000 0000 0000 0000 0000 0000 0200 0110
#  mem[00-07]: 36 02 37 01 5f 10 35 01
#  mem[08-0f]: 00 b1 25 02 04 e1 04 a5
#  mem[10-17]: 8c 0c 02 b1 01 41 01 05
#  mem[18-1f]: 99 02 00 41 c7 ec 00 d0
#  mem[20-27]: c7 fe xx xx xx xx xx xx
# 
# ==== clock: 12 state: IF ====
#  pc:0008 ir:0011010100000001 treg1:0000 treg2:0000 rdr:0000 wdr:0000 oe:1 we:0
#  sbus1:0008 sbus2:0002 dbus:000a addr:0008 din:00b1 dout:0000 led:000000
#  regs: 0000 0000 0000 0000 0000 0100 0200 0110
#  mem[00-07]: 36 02 37 01 5f 10 35 01
#  mem[08-0f]: 00 b1 25 02 04 e1 04 a5
#  mem[10-17]: 8c 0c 02 b1 01 41 01 05
#  mem[18-1f]: 99 02 00 41 c7 ec 00 d0
#  mem[20-27]: c7 fe xx xx xx xx xx xx
# 
# ==== clock: 13 state: RF ====
#  pc:000a ir:0000000010110001 treg1:0000 treg2:0000 rdr:0000 wdr:0000 oe:0 we:0
#  sbus1:xxxx sbus2:xxxx dbus:xxxx addr:xxxx din:xxxx dout:xxxx led:000000
#  regs: 0000 0000 0000 0000 0000 0100 0200 0110
#  mem[00-07]: 36 02 37 01 5f 10 35 01
#  mem[08-0f]: 00 b1 25 02 04 e1 04 a5
#  mem[10-17]: 8c 0c 02 b1 01 41 01 05
#  mem[18-1f]: 99 02 00 41 c7 ec 00 d0
#  mem[20-27]: c7 fe xx xx xx xx xx xx
# 
# ==== clock: 14 state: EX ====
#  pc:000a ir:0000000010110001 treg1:0000 treg2:0100 rdr:0000 wdr:0000 oe:1 we:0
#  sbus1:0000 sbus2:ffb1 dbus:0000 addr:0100 din:00ab dout:xxxx led:000000
#  regs: 0000 0000 0000 0000 0000 0100 0200 0110
#  mem[00-07]: 36 02 37 01 5f 10 35 01
#  mem[08-0f]: 00 b1 25 02 04 e1 04 a5
#  mem[10-17]: 8c 0c 02 b1 01 41 01 05
#  mem[18-1f]: 99 02 00 41 c7 ec 00 d0
#  mem[20-27]: c7 fe xx xx xx xx xx xx
# 
# ==== clock: 15 state: WB ====
#  pc:000a ir:0000000010110001 treg1:0000 treg2:0100 rdr:00ab wdr:0000 oe:0 we:0
#  sbus1:xxxx sbus2:00ab dbus:00ab addr:0100 din:xxxx dout:0000 led:000000
#  regs: 0000 0000 0000 0000 0000 0100 0200 0110
#  mem[00-07]: 36 02 37 01 5f 10 35 01
#  mem[08-0f]: 00 b1 25 02 04 e1 04 a5
#  mem[10-17]: 8c 0c 02 b1 01 41 01 05
#  mem[18-1f]: 99 02 00 41 c7 ec 00 d0
#  mem[20-27]: c7 fe xx xx xx xx xx xx
# 
# ==== clock: 16 state: IF ====
#  pc:000a ir:0000000010110001 treg1:0000 treg2:0100 rdr:00ab wdr:0000 oe:1 we:0
#  sbus1:000a sbus2:0002 dbus:000c addr:000a din:2502 dout:0000 led:000000
#  regs: 00ab 0000 0000 0000 0000 0100 0200 0110
#  mem[00-07]: 36 02 37 01 5f 10 35 01
#  mem[08-0f]: 00 b1 25 02 04 e1 04 a5
#  mem[10-17]: 8c 0c 02 b1 01 41 01 05
#  mem[18-1f]: 99 02 00 41 c7 ec 00 d0
#  mem[20-27]: c7 fe xx xx xx xx xx xx
# 
# ==== clock: 17 state: RF ====
#  pc:000c ir:0010010100000010 treg1:0000 treg2:0100 rdr:00ab wdr:0000 oe:0 we:0
#  sbus1:xxxx sbus2:xxxx dbus:xxxx addr:xxxx din:xxxx dout:xxxx led:000000
#  regs: 00ab 0000 0000 0000 0000 0100 0200 0110
#  mem[00-07]: 36 02 37 01 5f 10 35 01
#  mem[08-0f]: 00 b1 25 02 04 e1 04 a5
#  mem[10-17]: 8c 0c 02 b1 01 41 01 05
#  mem[18-1f]: 99 02 00 41 c7 ec 00 d0
#  mem[20-27]: c7 fe xx xx xx xx xx xx
# 
# ==== clock: 18 state: EX ====
#  pc:000c ir:0010010100000010 treg1:0100 treg2:00ab rdr:00ab wdr:0000 oe:0 we:0
#  sbus1:0100 sbus2:0002 dbus:0102 addr:00ab din:xxxx dout:xxxx led:000000
#  regs: 00ab 0000 0000 0000 0000 0100 0200 0110
#  mem[00-07]: 36 02 37 01 5f 10 35 01
#  mem[08-0f]: 00 b1 25 02 04 e1 04 a5
#  mem[10-17]: 8c 0c 02 b1 01 41 01 05
#  mem[18-1f]: 99 02 00 41 c7 ec 00 d0
#  mem[20-27]: c7 fe xx xx xx xx xx xx
# 
# ==== clock: 19 state: IF ====
#  pc:000c ir:0010010100000010 treg1:0100 treg2:00ab rdr:00ab wdr:0000 oe:1 we:0
#  sbus1:000c sbus2:0002 dbus:000e addr:000c din:04e1 dout:0000 led:000000
#  regs: 00ab 0000 0000 0000 0000 0102 0200 0110
#  mem[00-07]: 36 02 37 01 5f 10 35 01
#  mem[08-0f]: 00 b1 25 02 04 e1 04 a5
#  mem[10-17]: 8c 0c 02 b1 01 41 01 05
#  mem[18-1f]: 99 02 00 41 c7 ec 00 d0
#  mem[20-27]: c7 fe xx xx xx xx xx xx
# 
# ==== clock: 20 state: RF ====
#  pc:000e ir:0000010011100001 treg1:0100 treg2:00ab rdr:00ab wdr:0000 oe:0 we:0
#  sbus1:xxxx sbus2:xxxx dbus:xxxx addr:xxxx din:xxxx dout:xxxx led:000000
#  regs: 00ab 0000 0000 0000 0000 0102 0200 0110
#  mem[00-07]: 36 02 37 01 5f 10 35 01
#  mem[08-0f]: 00 b1 25 02 04 e1 04 a5
#  mem[10-17]: 8c 0c 02 b1 01 41 01 05
#  mem[18-1f]: 99 02 00 41 c7 ec 00 d0
#  mem[20-27]: c7 fe xx xx xx xx xx xx
# 
# ==== clock: 21 state: EX ====
#  pc:000e ir:0000010011100001 treg1:0000 treg2:0110 rdr:00ab wdr:0000 oe:0 we:0
#  sbus1:0000 sbus2:0110 dbus:0110 addr:0110 din:xxxx dout:xxxx led:000000
#  regs: 00ab 0000 0000 0000 0000 0102 0200 0110
#  mem[00-07]: 36 02 37 01 5f 10 35 01
#  mem[08-0f]: 00 b1 25 02 04 e1 04 a5
#  mem[10-17]: 8c 0c 02 b1 01 41 01 05
#  mem[18-1f]: 99 02 00 41 c7 ec 00 d0
#  mem[20-27]: c7 fe xx xx xx xx xx xx
# 
# ==== clock: 22 state: IF ====
#  pc:000e ir:0000010011100001 treg1:0000 treg2:0110 rdr:00ab wdr:0000 oe:1 we:0
#  sbus1:000e sbus2:0002 dbus:0010 addr:000e din:04a5 dout:0000 led:000000
#  regs: 00ab 0000 0000 0000 0110 0102 0200 0110
#  mem[00-07]: 36 02 37 01 5f 10 35 01
#  mem[08-0f]: 00 b1 25 02 04 e1 04 a5
#  mem[10-17]: 8c 0c 02 b1 01 41 01 05
#  mem[18-1f]: 99 02 00 41 c7 ec 00 d0
#  mem[20-27]: c7 fe xx xx xx xx xx xx
# 
# ==== clock: 23 state: RF ====
#  pc:0010 ir:0000010010100101 treg1:0000 treg2:0110 rdr:00ab wdr:0000 oe:0 we:0
#  sbus1:xxxx sbus2:xxxx dbus:xxxx addr:xxxx din:xxxx dout:xxxx led:000000
#  regs: 00ab 0000 0000 0000 0110 0102 0200 0110
#  mem[00-07]: 36 02 37 01 5f 10 35 01
#  mem[08-0f]: 00 b1 25 02 04 e1 04 a5
#  mem[10-17]: 8c 0c 02 b1 01 41 01 05
#  mem[18-1f]: 99 02 00 41 c7 ec 00 d0
#  mem[20-27]: c7 fe xx xx xx xx xx xx
# 
# ==== clock: 24 state: EX ====
#  pc:0010 ir:0000010010100101 treg1:0110 treg2:0102 rdr:00ab wdr:0000 oe:0 we:0
#  sbus1:0110 sbus2:0102 dbus:000e addr:0102 din:xxxx dout:xxxx led:000000
#  regs: 00ab 0000 0000 0000 0110 0102 0200 0110
#  mem[00-07]: 36 02 37 01 5f 10 35 01
#  mem[08-0f]: 00 b1 25 02 04 e1 04 a5
#  mem[10-17]: 8c 0c 02 b1 01 41 01 05
#  mem[18-1f]: 99 02 00 41 c7 ec 00 d0
#  mem[20-27]: c7 fe xx xx xx xx xx xx
# 
# ==== clock: 25 state: IF ====
#  pc:0010 ir:0000010010100101 treg1:0110 treg2:0102 rdr:00ab wdr:0000 oe:1 we:0
#  sbus1:0010 sbus2:0002 dbus:0012 addr:0010 din:8c0c dout:0000 led:000000
#  regs: 00ab 0000 0000 0000 000e 0102 0200 0110
#  mem[00-07]: 36 02 37 01 5f 10 35 01
#  mem[08-0f]: 00 b1 25 02 04 e1 04 a5
#  mem[10-17]: 8c 0c 02 b1 01 41 01 05
#  mem[18-1f]: 99 02 00 41 c7 ec 00 d0
#  mem[20-27]: c7 fe xx xx xx xx xx xx
# 
# ==== clock: 26 state: RF ====
#  pc:0012 ir:1000110000001100 treg1:0110 treg2:0102 rdr:00ab wdr:0000 oe:0 we:0
#  sbus1:xxxx sbus2:xxxx dbus:xxxx addr:xxxx din:xxxx dout:xxxx led:000000
#  regs: 00ab 0000 0000 0000 000e 0102 0200 0110
#  mem[00-07]: 36 02 37 01 5f 10 35 01
#  mem[08-0f]: 00 b1 25 02 04 e1 04 a5
#  mem[10-17]: 8c 0c 02 b1 01 41 01 05
#  mem[18-1f]: 99 02 00 41 c7 ec 00 d0
#  mem[20-27]: c7 fe xx xx xx xx xx xx
# 
# ==== clock: 27 state: EX ====
#  pc:0012 ir:1000110000001100 treg1:000e treg2:00ab rdr:00ab wdr:0000 oe:0 we:0
#  sbus1:0012 sbus2:000c dbus:001e addr:00ab din:xxxx dout:xxxx led:000000
#  regs: 00ab 0000 0000 0000 000e 0102 0200 0110
#  mem[00-07]: 36 02 37 01 5f 10 35 01
#  mem[08-0f]: 00 b1 25 02 04 e1 04 a5
#  mem[10-17]: 8c 0c 02 b1 01 41 01 05
#  mem[18-1f]: 99 02 00 41 c7 ec 00 d0
#  mem[20-27]: c7 fe xx xx xx xx xx xx
# 
# ==== clock: 28 state: IF ====
#  pc:0012 ir:1000110000001100 treg1:000e treg2:00ab rdr:00ab wdr:0000 oe:1 we:0
#  sbus1:0012 sbus2:0002 dbus:0014 addr:0012 din:02b1 dout:0000 led:000000
#  regs: 00ab 0000 0000 0000 000e 0102 0200 0110
#  mem[00-07]: 36 02 37 01 5f 10 35 01
#  mem[08-0f]: 00 b1 25 02 04 e1 04 a5
#  mem[10-17]: 8c 0c 02 b1 01 41 01 05
#  mem[18-1f]: 99 02 00 41 c7 ec 00 d0
#  mem[20-27]: c7 fe xx xx xx xx xx xx
# 
# ==== clock: 29 state: RF ====
#  pc:0014 ir:0000001010110001 treg1:000e treg2:00ab rdr:00ab wdr:0000 oe:0 we:0
#  sbus1:xxxx sbus2:xxxx dbus:xxxx addr:xxxx din:xxxx dout:xxxx led:000000
#  regs: 00ab 0000 0000 0000 000e 0102 0200 0110
#  mem[00-07]: 36 02 37 01 5f 10 35 01
#  mem[08-0f]: 00 b1 25 02 04 e1 04 a5
#  mem[10-17]: 8c 0c 02 b1 01 41 01 05
#  mem[18-1f]: 99 02 00 41 c7 ec 00 d0
#  mem[20-27]: c7 fe xx xx xx xx xx xx
# 
# ==== clock: 30 state: EX ====
#  pc:0014 ir:0000001010110001 treg1:0000 treg2:0102 rdr:00ab wdr:0000 oe:1 we:0
#  sbus1:0000 sbus2:ffb1 dbus:0000 addr:0102 din:00ff dout:xxxx led:000000
#  regs: 00ab 0000 0000 0000 000e 0102 0200 0110
#  mem[00-07]: 36 02 37 01 5f 10 35 01
#  mem[08-0f]: 00 b1 25 02 04 e1 04 a5
#  mem[10-17]: 8c 0c 02 b1 01 41 01 05
#  mem[18-1f]: 99 02 00 41 c7 ec 00 d0
#  mem[20-27]: c7 fe xx xx xx xx xx xx
# 
# ==== clock: 31 state: WB ====
#  pc:0014 ir:0000001010110001 treg1:0000 treg2:0102 rdr:00ff wdr:0000 oe:0 we:0
#  sbus1:xxxx sbus2:00ff dbus:00ff addr:0102 din:xxxx dout:0000 led:000000
#  regs: 00ab 0000 0000 0000 000e 0102 0200 0110
#  mem[00-07]: 36 02 37 01 5f 10 35 01
#  mem[08-0f]: 00 b1 25 02 04 e1 04 a5
#  mem[10-17]: 8c 0c 02 b1 01 41 01 05
#  mem[18-1f]: 99 02 00 41 c7 ec 00 d0
#  mem[20-27]: c7 fe xx xx xx xx xx xx
# 
# ==== clock: 32 state: IF ====
#  pc:0014 ir:0000001010110001 treg1:0000 treg2:0102 rdr:00ff wdr:0000 oe:1 we:0
#  sbus1:0014 sbus2:0002 dbus:0016 addr:0014 din:0141 dout:0000 led:000000
#  regs: 00ab 0000 00ff 0000 000e 0102 0200 0110
#  mem[00-07]: 36 02 37 01 5f 10 35 01
#  mem[08-0f]: 00 b1 25 02 04 e1 04 a5
#  mem[10-17]: 8c 0c 02 b1 01 41 01 05
#  mem[18-1f]: 99 02 00 41 c7 ec 00 d0
#  mem[20-27]: c7 fe xx xx xx xx xx xx
# 
# ==== clock: 33 state: RF ====
#  pc:0016 ir:0000000101000001 treg1:0000 treg2:0102 rdr:00ff wdr:0000 oe:0 we:0
#  sbus1:xxxx sbus2:xxxx dbus:xxxx addr:xxxx din:xxxx dout:xxxx led:000000
#  regs: 00ab 0000 00ff 0000 000e 0102 0200 0110
#  mem[00-07]: 36 02 37 01 5f 10 35 01
#  mem[08-0f]: 00 b1 25 02 04 e1 04 a5
#  mem[10-17]: 8c 0c 02 b1 01 41 01 05
#  mem[18-1f]: 99 02 00 41 c7 ec 00 d0
#  mem[20-27]: c7 fe xx xx xx xx xx xx
# 
# ==== clock: 34 state: EX ====
#  pc:0016 ir:0000000101000001 treg1:0000 treg2:00ff rdr:00ff wdr:0000 oe:0 we:0
#  sbus1:0000 sbus2:00ff dbus:00ff addr:00ff din:xxxx dout:xxxx led:000000
#  regs: 00ab 0000 00ff 0000 000e 0102 0200 0110
#  mem[00-07]: 36 02 37 01 5f 10 35 01
#  mem[08-0f]: 00 b1 25 02 04 e1 04 a5
#  mem[10-17]: 8c 0c 02 b1 01 41 01 05
#  mem[18-1f]: 99 02 00 41 c7 ec 00 d0
#  mem[20-27]: c7 fe xx xx xx xx xx xx
# 
# ==== clock: 35 state: IF ====
#  pc:0016 ir:0000000101000001 treg1:0000 treg2:00ff rdr:00ff wdr:0000 oe:1 we:0
#  sbus1:0016 sbus2:0002 dbus:0018 addr:0016 din:0105 dout:0000 led:000000
#  regs: 00ab 00ff 00ff 0000 000e 0102 0200 0110
#  mem[00-07]: 36 02 37 01 5f 10 35 01
#  mem[08-0f]: 00 b1 25 02 04 e1 04 a5
#  mem[10-17]: 8c 0c 02 b1 01 41 01 05
#  mem[18-1f]: 99 02 00 41 c7 ec 00 d0
#  mem[20-27]: c7 fe xx xx xx xx xx xx
# 
# ==== clock: 36 state: RF ====
#  pc:0018 ir:0000000100000101 treg1:0000 treg2:00ff rdr:00ff wdr:0000 oe:0 we:0
#  sbus1:xxxx sbus2:xxxx dbus:xxxx addr:xxxx din:xxxx dout:xxxx led:000000
#  regs: 00ab 00ff 00ff 0000 000e 0102 0200 0110
#  mem[00-07]: 36 02 37 01 5f 10 35 01
#  mem[08-0f]: 00 b1 25 02 04 e1 04 a5
#  mem[10-17]: 8c 0c 02 b1 01 41 01 05
#  mem[18-1f]: 99 02 00 41 c7 ec 00 d0
#  mem[20-27]: c7 fe xx xx xx xx xx xx
# 
# ==== clock: 37 state: EX ====
#  pc:0018 ir:0000000100000101 treg1:00ff treg2:00ab rdr:00ff wdr:0000 oe:0 we:0
#  sbus1:00ff sbus2:00ab dbus:0054 addr:00ab din:xxxx dout:xxxx led:000000
#  regs: 00ab 00ff 00ff 0000 000e 0102 0200 0110
#  mem[00-07]: 36 02 37 01 5f 10 35 01
#  mem[08-0f]: 00 b1 25 02 04 e1 04 a5
#  mem[10-17]: 8c 0c 02 b1 01 41 01 05
#  mem[18-1f]: 99 02 00 41 c7 ec 00 d0
#  mem[20-27]: c7 fe xx xx xx xx xx xx
# 
# ==== clock: 38 state: IF ====
#  pc:0018 ir:0000000100000101 treg1:00ff treg2:00ab rdr:00ff wdr:0000 oe:1 we:0
#  sbus1:0018 sbus2:0002 dbus:001a addr:0018 din:9902 dout:0000 led:000000
#  regs: 00ab 0054 00ff 0000 000e 0102 0200 0110
#  mem[00-07]: 36 02 37 01 5f 10 35 01
#  mem[08-0f]: 00 b1 25 02 04 e1 04 a5
#  mem[10-17]: 8c 0c 02 b1 01 41 01 05
#  mem[18-1f]: 99 02 00 41 c7 ec 00 d0
#  mem[20-27]: c7 fe xx xx xx xx xx xx
# 
# ==== clock: 39 state: RF ====
#  pc:001a ir:1001100100000010 treg1:00ff treg2:00ab rdr:00ff wdr:0000 oe:0 we:0
#  sbus1:xxxx sbus2:xxxx dbus:xxxx addr:xxxx din:xxxx dout:xxxx led:000000
#  regs: 00ab 0054 00ff 0000 000e 0102 0200 0110
#  mem[00-07]: 36 02 37 01 5f 10 35 01
#  mem[08-0f]: 00 b1 25 02 04 e1 04 a5
#  mem[10-17]: 8c 0c 02 b1 01 41 01 05
#  mem[18-1f]: 99 02 00 41 c7 ec 00 d0
#  mem[20-27]: c7 fe xx xx xx xx xx xx
# 
# ==== clock: 40 state: EX ====
#  pc:001a ir:1001100100000010 treg1:0054 treg2:00ab rdr:00ff wdr:0000 oe:0 we:0
#  sbus1:001a sbus2:0002 dbus:001c addr:00ab din:xxxx dout:xxxx led:000000
#  regs: 00ab 0054 00ff 0000 000e 0102 0200 0110
#  mem[00-07]: 36 02 37 01 5f 10 35 01
#  mem[08-0f]: 00 b1 25 02 04 e1 04 a5
#  mem[10-17]: 8c 0c 02 b1 01 41 01 05
#  mem[18-1f]: 99 02 00 41 c7 ec 00 d0
#  mem[20-27]: c7 fe xx xx xx xx xx xx
# 
# ==== clock: 41 state: IF ====
#  pc:001c ir:1001100100000010 treg1:0054 treg2:00ab rdr:00ff wdr:0000 oe:1 we:0
#  sbus1:001c sbus2:0002 dbus:001e addr:001c din:c7ec dout:0000 led:000000
#  regs: 00ab 0054 00ff 0000 000e 0102 0200 0110
#  mem[00-07]: 36 02 37 01 5f 10 35 01
#  mem[08-0f]: 00 b1 25 02 04 e1 04 a5
#  mem[10-17]: 8c 0c 02 b1 01 41 01 05
#  mem[18-1f]: 99 02 00 41 c7 ec 00 d0
#  mem[20-27]: c7 fe xx xx xx xx xx xx
# 
# ==== clock: 42 state: RF ====
#  pc:001e ir:1100011111101100 treg1:0054 treg2:00ab rdr:00ff wdr:0000 oe:0 we:0
#  sbus1:xxxx sbus2:xxxx dbus:xxxx addr:xxxx din:xxxx dout:xxxx led:000000
#  regs: 00ab 0054 00ff 0000 000e 0102 0200 0110
#  mem[00-07]: 36 02 37 01 5f 10 35 01
#  mem[08-0f]: 00 b1 25 02 04 e1 04 a5
#  mem[10-17]: 8c 0c 02 b1 01 41 01 05
#  mem[18-1f]: 99 02 00 41 c7 ec 00 d0
#  mem[20-27]: c7 fe xx xx xx xx xx xx
# 
# ==== clock: 43 state: EX ====
#  pc:001e ir:1100011111101100 treg1:0110 treg2:0110 rdr:00ff wdr:0000 oe:0 we:0
#  sbus1:001e sbus2:ffec dbus:000a addr:0110 din:xxxx dout:xxxx led:000000
#  regs: 00ab 0054 00ff 0000 000e 0102 0200 0110
#  mem[00-07]: 36 02 37 01 5f 10 35 01
#  mem[08-0f]: 00 b1 25 02 04 e1 04 a5
#  mem[10-17]: 8c 0c 02 b1 01 41 01 05
#  mem[18-1f]: 99 02 00 41 c7 ec 00 d0
#  mem[20-27]: c7 fe xx xx xx xx xx xx
# 
# ==== clock: 44 state: IF ====
#  pc:000a ir:1100011111101100 treg1:0110 treg2:0110 rdr:00ff wdr:0000 oe:1 we:0
#  sbus1:000a sbus2:0002 dbus:000c addr:000a din:2502 dout:0000 led:000000
#  regs: 00ab 0054 00ff 0000 000e 0102 0200 0110
#  mem[00-07]: 36 02 37 01 5f 10 35 01
#  mem[08-0f]: 00 b1 25 02 04 e1 04 a5
#  mem[10-17]: 8c 0c 02 b1 01 41 01 05
#  mem[18-1f]: 99 02 00 41 c7 ec 00 d0
#  mem[20-27]: c7 fe xx xx xx xx xx xx
# 
# ==== clock: 45 state: RF ====
#  pc:000c ir:0010010100000010 treg1:0110 treg2:0110 rdr:00ff wdr:0000 oe:0 we:0
#  sbus1:xxxx sbus2:xxxx dbus:xxxx addr:xxxx din:xxxx dout:xxxx led:000000
#  regs: 00ab 0054 00ff 0000 000e 0102 0200 0110
#  mem[00-07]: 36 02 37 01 5f 10 35 01
#  mem[08-0f]: 00 b1 25 02 04 e1 04 a5
#  mem[10-17]: 8c 0c 02 b1 01 41 01 05
#  mem[18-1f]: 99 02 00 41 c7 ec 00 d0
#  mem[20-27]: c7 fe xx xx xx xx xx xx
# 
# ==== clock: 46 state: EX ====
#  pc:000c ir:0010010100000010 treg1:0102 treg2:00ab rdr:00ff wdr:0000 oe:0 we:0
#  sbus1:0102 sbus2:0002 dbus:0104 addr:00ab din:xxxx dout:xxxx led:000000
#  regs: 00ab 0054 00ff 0000 000e 0102 0200 0110
#  mem[00-07]: 36 02 37 01 5f 10 35 01
#  mem[08-0f]: 00 b1 25 02 04 e1 04 a5
#  mem[10-17]: 8c 0c 02 b1 01 41 01 05
#  mem[18-1f]: 99 02 00 41 c7 ec 00 d0
#  mem[20-27]: c7 fe xx xx xx xx xx xx
# 
# ==== clock: 47 state: IF ====
#  pc:000c ir:0010010100000010 treg1:0102 treg2:00ab rdr:00ff wdr:0000 oe:1 we:0
#  sbus1:000c sbus2:0002 dbus:000e addr:000c din:04e1 dout:0000 led:000000
#  regs: 00ab 0054 00ff 0000 000e 0104 0200 0110
#  mem[00-07]: 36 02 37 01 5f 10 35 01
#  mem[08-0f]: 00 b1 25 02 04 e1 04 a5
#  mem[10-17]: 8c 0c 02 b1 01 41 01 05
#  mem[18-1f]: 99 02 00 41 c7 ec 00 d0
#  mem[20-27]: c7 fe xx xx xx xx xx xx
# 
# ==== clock: 48 state: RF ====
#  pc:000e ir:0000010011100001 treg1:0102 treg2:00ab rdr:00ff wdr:0000 oe:0 we:0
#  sbus1:xxxx sbus2:xxxx dbus:xxxx addr:xxxx din:xxxx dout:xxxx led:000000
#  regs: 00ab 0054 00ff 0000 000e 0104 0200 0110
#  mem[00-07]: 36 02 37 01 5f 10 35 01
