risc16ba/sim_risc16ba.log
# vsim -do {add wave -r /sim_risc16ba/risc16ba_inst/* /sim_risc16ba/mem; run -all} -l sim_risc16ba.log -c -wlf sim_risc16ba.wlf sim_risc16ba 
# Loading sv_std.std
# Loading work.sim_risc16ba
# Loading work.risc16ba
# Loading work.reg_file
# Loading work.alu16
# add wave -r /sim_risc16ba/risc16ba_inst/* /sim_risc16ba/mem 
#  run -all 
# ==== clock: 0 ====
#  if_pc:0000 if_ir:0000000000000000
#  rf_pc:0000 rf_ir:0000000000000000 rf_treg1:0000 rf_treg2:0000 rf_immediate:0000
#  ex_ir:0000000000000000 ex_result:0000
#  daddr:0000 ddin:xxxx ddout:xxxx doe:0 dwe0:0 dwe1:0
#  iaddr:0000 idin:3040 ioe:1
#  alu_ain:0000 alu_bin:0000 alu_op:0000 reg_file_we:0 if_pc_we:0 led:000000
#  regs: 0000 0000 0000 0000 0000 0000 0000 0000
#  mem[c000-c007]: xx xx xx xx xx xx xx xx
#  mem[c008-c00f]: xx xx xx xx xx xx xx xx
#  mem[c010-c017]: xx xx xx xx xx xx xx xx
#  mem[c018-c01f]: xx xx xx xx xx xx xx xx
#  mem[c020-c027]: xx xx xx xx xx xx xx xx
#  mem[c028-c02f]: xx xx xx xx xx xx xx xx
#  mem[c030-c037]: xx xx xx xx xx xx xx xx
# 
# ==== clock: 1 ====
#  if_pc:0002 if_ir:0011000001000000
#  rf_pc:0000 rf_ir:0000000000000000 rf_treg1:0000 rf_treg2:0000 rf_immediate:0000
#  ex_ir:0000000000000000 ex_result:0000
#  daddr:0000 ddin:xxxx ddout:xxxx doe:0 dwe0:0 dwe1:0
#  iaddr:0002 idin:3180 ioe:1
#  alu_ain:0000 alu_bin:0000 alu_op:0000 reg_file_we:0 if_pc_we:0 led:000000
#  regs: 0000 0000 0000 0000 0000 0000 0000 0000
#  mem[c000-c007]: xx xx xx xx xx xx xx xx
#  mem[c008-c00f]: xx xx xx xx xx xx xx xx
#  mem[c010-c017]: xx xx xx xx xx xx xx xx
#  mem[c018-c01f]: xx xx xx xx xx xx xx xx
#  mem[c020-c027]: xx xx xx xx xx xx xx xx
#  mem[c028-c02f]: xx xx xx xx xx xx xx xx
#  mem[c030-c037]: xx xx xx xx xx xx xx xx
# 
# ==== clock: 2 ====
#  if_pc:0004 if_ir:0011000110000000
#  rf_pc:0002 rf_ir:0011000001000000 rf_treg1:0000 rf_treg2:0000 rf_immediate:0040
#  ex_ir:0000000000000000 ex_result:0000
#  daddr:0000 ddin:xxxx ddout:xxxx doe:0 dwe0:0 dwe1:0
#  iaddr:0004 idin:32c0 ioe:1
#  alu_ain:0000 alu_bin:0040 alu_op:0110 reg_file_we:0 if_pc_we:0 led:000000
#  regs: 0000 0000 0000 0000 0000 0000 0000 0000
#  mem[c000-c007]: xx xx xx xx xx xx xx xx
#  mem[c008-c00f]: xx xx xx xx xx xx xx xx
#  mem[c010-c017]: xx xx xx xx xx xx xx xx
#  mem[c018-c01f]: xx xx xx xx xx xx xx xx
#  mem[c020-c027]: xx xx xx xx xx xx xx xx
#  mem[c028-c02f]: xx xx xx xx xx xx xx xx
#  mem[c030-c037]: xx xx xx xx xx xx xx xx
# 
# ==== clock: 3 ====
#  if_pc:0006 if_ir:0011001011000000
#  rf_pc:0004 rf_ir:0011000110000000 rf_treg1:0000 rf_treg2:0000 rf_immediate:0080
#  ex_ir:0011000001000000 ex_result:4000
#  daddr:0000 ddin:xxxx ddout:xxxx doe:0 dwe0:0 dwe1:0
#  iaddr:0006 idin:0333 ioe:1
#  alu_ain:0000 alu_bin:0080 alu_op:0110 reg_file_we:1 if_pc_we:0 led:000000
#  regs: 0000 0000 0000 0000 0000 0000 0000 0000
#  mem[c000-c007]: xx xx xx xx xx xx xx xx
#  mem[c008-c00f]: xx xx xx xx xx xx xx xx
#  mem[c010-c017]: xx xx xx xx xx xx xx xx
#  mem[c018-c01f]: xx xx xx xx xx xx xx xx
#  mem[c020-c027]: xx xx xx xx xx xx xx xx
#  mem[c028-c02f]: xx xx xx xx xx xx xx xx
#  mem[c030-c037]: xx xx xx xx xx xx xx xx
# 
# ==== clock: 4 ====
#  if_pc:0008 if_ir:0000001100110011
#  rf_pc:0006 rf_ir:0011001011000000 rf_treg1:0000 rf_treg2:0000 rf_immediate:00c0
#  ex_ir:0011000110000000 ex_result:8000
#  daddr:0000 ddin:xxxx ddout:xxxx doe:0 dwe0:0 dwe1:0
#  iaddr:0008 idin:0cff ioe:1
#  alu_ain:0000 alu_bin:00c0 alu_op:0110 reg_file_we:1 if_pc_we:0 led:000000
#  regs: 4000 0000 0000 0000 0000 0000 0000 0000
#  mem[c000-c007]: xx xx xx xx xx xx xx xx
#  mem[c008-c00f]: xx xx xx xx xx xx xx xx
#  mem[c010-c017]: xx xx xx xx xx xx xx xx
#  mem[c018-c01f]: xx xx xx xx xx xx xx xx
#  mem[c020-c027]: xx xx xx xx xx xx xx xx
#  mem[c028-c02f]: xx xx xx xx xx xx xx xx
#  mem[c030-c037]: xx xx xx xx xx xx xx xx
# 
# ==== clock: 5 ====
#  if_pc:000a if_ir:0000110011111111
#  rf_pc:0008 rf_ir:0000001100110011 rf_treg1:0000 rf_treg2:8000 rf_immediate:0033
#  ex_ir:0011001011000000 ex_result:c000
#  daddr:8000 ddin:a2a2 ddout:xxxx doe:1 dwe0:0 dwe1:0
#  iaddr:000a idin:0465 ioe:1
#  alu_ain:0000 alu_bin:8000 alu_op:0011 reg_file_we:1 if_pc_we:0 led:000000
#  regs: 4000 8000 0000 0000 0000 0000 0000 0000
#  mem[c000-c007]: xx xx xx xx xx xx xx xx
#  mem[c008-c00f]: xx xx xx xx xx xx xx xx
#  mem[c010-c017]: xx xx xx xx xx xx xx xx
#  mem[c018-c01f]: xx xx xx xx xx xx xx xx
#  mem[c020-c027]: xx xx xx xx xx xx xx xx
#  mem[c028-c02f]: xx xx xx xx xx xx xx xx
#  mem[c030-c037]: xx xx xx xx xx xx xx xx
# 
# ==== clock: 6 ====
#  if_pc:000c if_ir:0000010001100101
#  rf_pc:000a rf_ir:0000110011111111 rf_treg1:0000 rf_treg2:0000 rf_immediate:00ff
#  ex_ir:0000001100110011 ex_result:00a2
#  daddr:0000 ddin:3040 ddout:xxxx doe:1 dwe0:0 dwe1:0
#  iaddr:000c idin:0452 ioe:1
#  alu_ain:0000 alu_bin:00ff alu_op:0001 reg_file_we:1 if_pc_we:0 led:000000
#  regs: 4000 8000 c000 0000 0000 0000 0000 0000
#  mem[c000-c007]: xx xx xx xx xx xx xx xx
#  mem[c008-c00f]: xx xx xx xx xx xx xx xx
#  mem[c010-c017]: xx xx xx xx xx xx xx xx
#  mem[c018-c01f]: xx xx xx xx xx xx xx xx
#  mem[c020-c027]: xx xx xx xx xx xx xx xx
#  mem[c028-c02f]: xx xx xx xx xx xx xx xx
#  mem[c030-c037]: xx xx xx xx xx xx xx xx
# 
# ==== clock: 7 ====
#  if_pc:000e if_ir:0000010001010010
#  rf_pc:000c rf_ir:0000010001100101 rf_treg1:00ff rf_treg2:00a2 rf_immediate:0065
#  ex_ir:0000110011111111 ex_result:00ff
#  daddr:00a2 ddin:xxxx ddout:xxxx doe:0 dwe0:0 dwe1:0
#  iaddr:000e idin:2101 ioe:1
#  alu_ain:00ff alu_bin:00a2 alu_op:0101 reg_file_we:1 if_pc_we:0 led:000000
#  regs: 4000 8000 c000 00a2 0000 0000 0000 0000
#  mem[c000-c007]: xx xx xx xx xx xx xx xx
#  mem[c008-c00f]: xx xx xx xx xx xx xx xx
#  mem[c010-c017]: xx xx xx xx xx xx xx xx
#  mem[c018-c01f]: xx xx xx xx xx xx xx xx
#  mem[c020-c027]: xx xx xx xx xx xx xx xx
#  mem[c028-c02f]: xx xx xx xx xx xx xx xx
#  mem[c030-c037]: xx xx xx xx xx xx xx xx
# 
# ==== clock: 8 ====
#  if_pc:0010 if_ir:0010000100000001
#  rf_pc:000e rf_ir:0000010001010010 rf_treg1:005d rf_treg2:c000 rf_immediate:0052
#  ex_ir:0000010001100101 ex_result:005d
#  daddr:c000 ddin:xxxx ddout:5d00 doe:0 dwe0:1 dwe1:0
#  iaddr:0010 idin:20ff ioe:1
#  alu_ain:005d alu_bin:c000 alu_op:0010 reg_file_we:1 if_pc_we:0 led:000000
#  regs: 4000 8000 c000 00a2 00ff 0000 0000 0000
#  mem[c000-c007]: xx xx xx xx xx xx xx xx
#  mem[c008-c00f]: xx xx xx xx xx xx xx xx
#  mem[c010-c017]: xx xx xx xx xx xx xx xx
#  mem[c018-c01f]: xx xx xx xx xx xx xx xx
#  mem[c020-c027]: xx xx xx xx xx xx xx xx
#  mem[c028-c02f]: xx xx xx xx xx xx xx xx
#  mem[c030-c037]: xx xx xx xx xx xx xx xx
# 
# ==== clock: 9 ====
#  if_pc:0012 if_ir:0010000011111111
#  rf_pc:0010 rf_ir:0010000100000001 rf_treg1:8000 rf_treg2:4000 rf_immediate:0001
#  ex_ir:0000010001010010 ex_result:3fff
#  daddr:4000 ddin:xxxx ddout:xxxx doe:0 dwe0:0 dwe1:0
#  iaddr:0012 idin:2201 ioe:1
#  alu_ain:8000 alu_bin:0001 alu_op:0100 reg_file_we:0 if_pc_we:0 led:000000
#  regs: 4000 8000 c000 00a2 005d 0000 0000 0000
#  mem[c000-c007]: 5d xx xx xx xx xx xx xx
#  mem[c008-c00f]: xx xx xx xx xx xx xx xx
#  mem[c010-c017]: xx xx xx xx xx xx xx xx
#  mem[c018-c01f]: xx xx xx xx xx xx xx xx
#  mem[c020-c027]: xx xx xx xx xx xx xx xx
#  mem[c028-c02f]: xx xx xx xx xx xx xx xx
#  mem[c030-c037]: xx xx xx xx xx xx xx xx
# 
# ==== clock: 10 ====
#  if_pc:0014 if_ir:0010001000000001
#  rf_pc:0012 rf_ir:0010000011111111 rf_treg1:4000 rf_treg2:0000 rf_immediate:ffff
#  ex_ir:0010000100000001 ex_result:8001
#  daddr:0000 ddin:3040 ddout:xxxx doe:1 dwe0:0 dwe1:0
#  iaddr:0014 idin:80f0 ioe:1
#  alu_ain:4000 alu_bin:ffff alu_op:0100 reg_file_we:1 if_pc_we:0 led:000000
#  regs: 4000 8000 c000 00a2 005d 0000 0000 0000
#  mem[c000-c007]: 5d xx xx xx xx xx xx xx
#  mem[c008-c00f]: xx xx xx xx xx xx xx xx
#  mem[c010-c017]: xx xx xx xx xx xx xx xx
#  mem[c018-c01f]: xx xx xx xx xx xx xx xx
#  mem[c020-c027]: xx xx xx xx xx xx xx xx
#  mem[c028-c02f]: xx xx xx xx xx xx xx xx
#  mem[c030-c037]: xx xx xx xx xx xx xx xx
# 
# ==== clock: 11 ====
#  if_pc:0016 if_ir:1000000011110000
#  rf_pc:0014 rf_ir:0010001000000001 rf_treg1:c000 rf_treg2:8001 rf_immediate:0001
#  ex_ir:0010000011111111 ex_result:3fff
#  daddr:8001 ddin:xxxx ddout:xxxx doe:0 dwe0:0 dwe1:0
#  iaddr:0016 idin:0000 ioe:1
#  alu_ain:c000 alu_bin:0001 alu_op:0100 reg_file_we:1 if_pc_we:0 led:000000
#  regs: 4000 8001 c000 00a2 005d 0000 0000 0000
#  mem[c000-c007]: 5d xx xx xx xx xx xx xx
#  mem[c008-c00f]: xx xx xx xx xx xx xx xx
#  mem[c010-c017]: xx xx xx xx xx xx xx xx
#  mem[c018-c01f]: xx xx xx xx xx xx xx xx
#  mem[c020-c027]: xx xx xx xx xx xx xx xx
#  mem[c028-c02f]: xx xx xx xx xx xx xx xx
#  mem[c030-c037]: xx xx xx xx xx xx xx xx
# 
# ==== clock: 12 ====
#  if_pc:0018 if_ir:0000000000000000
#  rf_pc:0016 rf_ir:1000000011110000 rf_treg1:3fff rf_treg2:0000 rf_immediate:fff0
#  ex_ir:0010001000000001 ex_result:c001
#  daddr:0000 ddin:xxxx ddout:xxxx doe:0 dwe0:0 dwe1:0
#  iaddr:0018 idin:0000 ioe:1
#  alu_ain:0016 alu_bin:fff0 alu_op:0100 reg_file_we:1 if_pc_we:0 led:000000
#  regs: 3fff 8001 c000 00a2 005d 0000 0000 0000
#  mem[c000-c007]: 5d xx xx xx xx xx xx xx
#  mem[c008-c00f]: xx xx xx xx xx xx xx xx
#  mem[c010-c017]: xx xx xx xx xx xx xx xx
#  mem[c018-c01f]: xx xx xx xx xx xx xx xx
#  mem[c020-c027]: xx xx xx xx xx xx xx xx
#  mem[c028-c02f]: xx xx xx xx xx xx xx xx
#  mem[c030-c037]: xx xx xx xx xx xx xx xx
# 
# ==== clock: 13 ====
#  if_pc:001a if_ir:0000000000000000
#  rf_pc:0018 rf_ir:0000000000000000 rf_treg1:3fff rf_treg2:c001 rf_immediate:0000
#  ex_ir:1000000011110000 ex_result:0006
#  daddr:c001 ddin:xxxx ddout:xxxx doe:0 dwe0:0 dwe1:0
#  iaddr:001a idin:0000 ioe:1
#  alu_ain:3fff alu_bin:c001 alu_op:0000 reg_file_we:0 if_pc_we:1 led:000000
#  regs: 3fff 8001 c001 00a2 005d 0000 0000 0000
#  mem[c000-c007]: 5d xx xx xx xx xx xx xx
#  mem[c008-c00f]: xx xx xx xx xx xx xx xx
#  mem[c010-c017]: xx xx xx xx xx xx xx xx
#  mem[c018-c01f]: xx xx xx xx xx xx xx xx
#  mem[c020-c027]: xx xx xx xx xx xx xx xx
#  mem[c028-c02f]: xx xx xx xx xx xx xx xx
#  mem[c030-c037]: xx xx xx xx xx xx xx xx
# 
# ==== clock: 14 ====
#  if_pc:0006 if_ir:0000000000000000
#  rf_pc:001a rf_ir:0000000000000000 rf_treg1:3fff rf_treg2:3fff rf_immediate:0000
#  ex_ir:0000000000000000 ex_result:3fff
#  daddr:3fff ddin:xxxx ddout:xxxx doe:0 dwe0:0 dwe1:0
#  iaddr:0006 idin:0333 ioe:1
#  alu_ain:3fff alu_bin:3fff alu_op:0000 reg_file_we:0 if_pc_we:0 led:000000
#  regs: 3fff 8001 c001 00a2 005d 0000 0000 0000
#  mem[c000-c007]: 5d xx xx xx xx xx xx xx
#  mem[c008-c00f]: xx xx xx xx xx xx xx xx
#  mem[c010-c017]: xx xx xx xx xx xx xx xx
#  mem[c018-c01f]: xx xx xx xx xx xx xx xx
#  mem[c020-c027]: xx xx xx xx xx xx xx xx
#  mem[c028-c02f]: xx xx xx xx xx xx xx xx
#  mem[c030-c037]: xx xx xx xx xx xx xx xx
# 
# ==== clock: 15 ====
#  if_pc:0008 if_ir:0000001100110011
#  rf_pc:0006 rf_ir:0000000000000000 rf_treg1:3fff rf_treg2:3fff rf_immediate:0000
#  ex_ir:0000000000000000 ex_result:3fff
#  daddr:3fff ddin:xxxx ddout:xxxx doe:0 dwe0:0 dwe1:0
#  iaddr:0008 idin:0cff ioe:1
#  alu_ain:3fff alu_bin:3fff alu_op:0000 reg_file_we:0 if_pc_we:0 led:000000
#  regs: 3fff 8001 c001 00a2 005d 0000 0000 0000
#  mem[c000-c007]: 5d xx xx xx xx xx xx xx
#  mem[c008-c00f]: xx xx xx xx xx xx xx xx
#  mem[c010-c017]: xx xx xx xx xx xx xx xx
#  mem[c018-c01f]: xx xx xx xx xx xx xx xx
#  mem[c020-c027]: xx xx xx xx xx xx xx xx
#  mem[c028-c02f]: xx xx xx xx xx xx xx xx
#  mem[c030-c037]: xx xx xx xx xx xx xx xx
# 
# ==== clock: 16 ====
#  if_pc:000a if_ir:0000110011111111
#  rf_pc:0008 rf_ir:0000001100110011 rf_treg1:00a2 rf_treg2:8001 rf_immediate:0033
#  ex_ir:0000000000000000 ex_result:3fff
#  daddr:8001 ddin:a2a2 ddout:xxxx doe:1 dwe0:0 dwe1:0
#  iaddr:000a idin:0465 ioe:1
#  alu_ain:00a2 alu_bin:8001 alu_op:0011 reg_file_we:0 if_pc_we:0 led:000000
#  regs: 3fff 8001 c001 00a2 005d 0000 0000 0000
#  mem[c000-c007]: 5d xx xx xx xx xx xx xx
#  mem[c008-c00f]: xx xx xx xx xx xx xx xx
#  mem[c010-c017]: xx xx xx xx xx xx xx xx
#  mem[c018-c01f]: xx xx xx xx xx xx xx xx
#  mem[c020-c027]: xx xx xx xx xx xx xx xx
#  mem[c028-c02f]: xx xx xx xx xx xx xx xx
#  mem[c030-c037]: xx xx xx xx xx xx xx xx
# 
# ==== clock: 17 ====
#  if_pc:000c if_ir:0000010001100101
#  rf_pc:000a rf_ir:0000110011111111 rf_treg1:005d rf_treg2:0000 rf_immediate:00ff
#  ex_ir:0000001100110011 ex_result:00a2
#  daddr:0000 ddin:3040 ddout:xxxx doe:1 dwe0:0 dwe1:0
#  iaddr:000c idin:0452 ioe:1
#  alu_ain:005d alu_bin:00ff alu_op:0001 reg_file_we:1 if_pc_we:0 led:000000
#  regs: 3fff 8001 c001 00a2 005d 0000 0000 0000
#  mem[c000-c007]: 5d xx xx xx xx xx xx xx
#  mem[c008-c00f]: xx xx xx xx xx xx xx xx
#  mem[c010-c017]: xx xx xx xx xx xx xx xx
#  mem[c018-c01f]: xx xx xx xx xx xx xx xx
#  mem[c020-c027]: xx xx xx xx xx xx xx xx
#  mem[c028-c02f]: xx xx xx xx xx xx xx xx
#  mem[c030-c037]: xx xx xx xx xx xx xx xx
# 
# ==== clock: 18 ====
#  if_pc:000e if_ir:0000010001010010
#  rf_pc:000c rf_ir:0000010001100101 rf_treg1:00ff rf_treg2:00a2 rf_immediate:0065
#  ex_ir:0000110011111111 ex_result:00ff
#  daddr:00a2 ddin:xxxx ddout:xxxx doe:0 dwe0:0 dwe1:0
#  iaddr:000e idin:2101 ioe:1
#  alu_ain:00ff alu_bin:00a2 alu_op:0101 reg_file_we:1 if_pc_we:0 led:000000
#  regs: 3fff 8001 c001 00a2 005d 0000 0000 0000
#  mem[c000-c007]: 5d xx xx xx xx xx xx xx
#  mem[c008-c00f]: xx xx xx xx xx xx xx xx
#  mem[c010-c017]: xx xx xx xx xx xx xx xx
#  mem[c018-c01f]: xx xx xx xx xx xx xx xx
#  mem[c020-c027]: xx xx xx xx xx xx xx xx
#  mem[c028-c02f]: xx xx xx xx xx xx xx xx
#  mem[c030-c037]: xx xx xx xx xx xx xx xx
# 
# ==== clock: 19 ====
#  if_pc:0010 if_ir:0010000100000001
#  rf_pc:000e rf_ir:0000010001010010 rf_treg1:005d rf_treg2:c001 rf_immediate:0052
#  ex_ir:0000010001100101 ex_result:005d
#  daddr:c001 ddin:xxxx ddout:005d doe:0 dwe0:0 dwe1:1
#  iaddr:0010 idin:20ff ioe:1
#  alu_ain:005d alu_bin:c001 alu_op:0010 reg_file_we:1 if_pc_we:0 led:000000
#  regs: 3fff 8001 c001 00a2 00ff 0000 0000 0000
#  mem[c000-c007]: 5d xx xx xx xx xx xx xx
#  mem[c008-c00f]: xx xx xx xx xx xx xx xx
#  mem[c010-c017]: xx xx xx xx xx xx xx xx
#  mem[c018-c01f]: xx xx xx xx xx xx xx xx
#  mem[c020-c027]: xx xx xx xx xx xx xx xx
#  mem[c028-c02f]: xx xx xx xx xx xx xx xx
#  mem[c030-c037]: xx xx xx xx xx xx xx xx
# 
# ==== clock: 20 ====
#  if_pc:0012 if_ir:0010000011111111
#  rf_pc:0010 rf_ir:0010000100000001 rf_treg1:8001 rf_treg2:3fff rf_immediate:0001
#  ex_ir:0000010001010010 ex_result:3ffe
#  daddr:3fff ddin:xxxx ddout:xxxx doe:0 dwe0:0 dwe1:0
#  iaddr:0012 idin:2201 ioe:1
#  alu_ain:8001 alu_bin:0001 alu_op:0100 reg_file_we:0 if_pc_we:0 led:000000
#  regs: 3fff 8001 c001 00a2 005d 0000 0000 0000
#  mem[c000-c007]: 5d 5d xx xx xx xx xx xx
#  mem[c008-c00f]: xx xx xx xx xx xx xx xx
#  mem[c010-c017]: xx xx xx xx xx xx xx xx
#  mem[c018-c01f]: xx xx xx xx xx xx xx xx
#  mem[c020-c027]: xx xx xx xx xx xx xx xx
#  mem[c028-c02f]: xx xx xx xx xx xx xx xx
#  mem[c030-c037]: xx xx xx xx xx xx xx xx
# 
# ==== clock: 21 ====
#  if_pc:0014 if_ir:0010001000000001
#  rf_pc:0012 rf_ir:0010000011111111 rf_treg1:3fff rf_treg2:0000 rf_immediate:ffff
#  ex_ir:0010000100000001 ex_result:8002
#  daddr:0000 ddin:3040 ddout:xxxx doe:1 dwe0:0 dwe1:0
#  iaddr:0014 idin:80f0 ioe:1
#  alu_ain:3fff alu_bin:ffff alu_op:0100 reg_file_we:1 if_pc_we:0 led:000000
#  regs: 3fff 8001 c001 00a2 005d 0000 0000 0000
#  mem[c000-c007]: 5d 5d xx xx xx xx xx xx
#  mem[c008-c00f]: xx xx xx xx xx xx xx xx
#  mem[c010-c017]: xx xx xx xx xx xx xx xx
#  mem[c018-c01f]: xx xx xx xx xx xx xx xx
#  mem[c020-c027]: xx xx xx xx xx xx xx xx
#  mem[c028-c02f]: xx xx xx xx xx xx xx xx
#  mem[c030-c037]: xx xx xx xx xx xx xx xx
# 
# ==== clock: 22 ====
#  if_pc:0016 if_ir:1000000011110000
#  rf_pc:0014 rf_ir:0010001000000001 rf_treg1:c001 rf_treg2:8002 rf_immediate:0001
#  ex_ir:0010000011111111 ex_result:3ffe
#  daddr:8002 ddin:xxxx ddout:xxxx doe:0 dwe0:0 dwe1:0
#  iaddr:0016 idin:0000 ioe:1
#  alu_ain:c001 alu_bin:0001 alu_op:0100 reg_file_we:1 if_pc_we:0 led:000000
#  regs: 3fff 8002 c001 00a2 005d 0000 0000 0000
#  mem[c000-c007]: 5d 5d xx xx xx xx xx xx
#  mem[c008-c00f]: xx xx xx xx xx xx xx xx
#  mem[c010-c017]: xx xx xx xx xx xx xx xx
#  mem[c018-c01f]: xx xx xx xx xx xx xx xx
#  mem[c020-c027]: xx xx xx xx xx xx xx xx
#  mem[c028-c02f]: xx xx xx xx xx xx xx xx
#  mem[c030-c037]: xx xx xx xx xx xx xx xx
# 
# ==== clock: 23 ====
#  if_pc:0018 if_ir:0000000000000000
#  rf_pc:0016 rf_ir:1000000011110000 rf_treg1:3ffe rf_treg2:0000 rf_immediate:fff0
#  ex_ir:0010001000000001 ex_result:c002
#  daddr:0000 ddin:xxxx ddout:xxxx doe:0 dwe0:0 dwe1:0
#  iaddr:0018 idin:0000 ioe:1
#  alu_ain:0016 alu_bin:fff0 alu_op:0100 reg_file_we:1 if_pc_we:0 led:000000
#  regs: 3ffe 8002 c001 00a2 005d 0000 0000 0000
#  mem[c000-c007]: 5d 5d xx xx xx xx xx xx
#  mem[c008-c00f]: xx xx xx xx xx xx xx xx
#  mem[c010-c017]: xx xx xx xx xx xx xx xx
#  mem[c018-c01f]: xx xx xx xx xx xx xx xx
#  mem[c020-c027]: xx xx xx xx xx xx xx xx
#  mem[c028-c02f]: xx xx xx xx xx xx xx xx
#  mem[c030-c037]: xx xx xx xx xx xx xx xx
# 
# ==== clock: 24 ====
#  if_pc:001a if_ir:0000000000000000
#  rf_pc:0018 rf_ir:0000000000000000 rf_treg1:3ffe rf_treg2:c002 rf_immediate:0000
#  ex_ir:1000000011110000 ex_result:0006
#  daddr:c002 ddin:xxxx ddout:xxxx doe:0 dwe0:0 dwe1:0
#  iaddr:001a idin:0000 ioe:1
#  alu_ain:3ffe alu_bin:c002 alu_op:0000 reg_file_we:0 if_pc_we:1 led:000000
#  regs: 3ffe 8002 c002 00a2 005d 0000 0000 0000
#  mem[c000-c007]: 5d 5d xx xx xx xx xx xx
#  mem[c008-c00f]: xx xx xx xx xx xx xx xx
#  mem[c010-c017]: xx xx xx xx xx xx xx xx
#  mem[c018-c01f]: xx xx xx xx xx xx xx xx
#  mem[c020-c027]: xx xx xx xx xx xx xx xx
#  mem[c028-c02f]: xx xx xx xx xx xx xx xx
#  mem[c030-c037]: xx xx xx xx xx xx xx xx
# 
# ==== clock: 25 ====
#  if_pc:0006 if_ir:0000000000000000
#  rf_pc:001a rf_ir:0000000000000000 rf_treg1:3ffe rf_treg2:3ffe rf_immediate:0000
#  ex_ir:0000000000000000 ex_result:3ffe
#  daddr:3ffe ddin:xxxx ddout:xxxx doe:0 dwe0:0 dwe1:0
#  iaddr:0006 idin:0333 ioe:1
#  alu_ain:3ffe alu_bin:3ffe alu_op:0000 reg_file_we:0 if_pc_we:0 led:000000
#  regs: 3ffe 8002 c002 00a2 005d 0000 0000 0000
#  mem[c000-c007]: 5d 5d xx xx xx xx xx xx
#  mem[c008-c00f]: xx xx xx xx xx xx xx xx
#  mem[c010-c017]: xx xx xx xx xx xx xx xx
#  mem[c018-c01f]: xx xx xx xx xx xx xx xx
#  mem[c020-c027]: xx xx xx xx xx xx xx xx
#  mem[c028-c02f]: xx xx xx xx xx xx xx xx
#  mem[c030-c037]: xx xx xx xx xx xx xx xx
# 
# ==== clock: 26 ====
#  if_pc:0008 if_ir:0000001100110011
#  rf_pc:0006 rf_ir:0000000000000000 rf_treg1:3ffe rf_treg2:3ffe rf_immediate:0000
#  ex_ir:0000000000000000 ex_result:3ffe
#  daddr:3ffe ddin:xxxx ddout:xxxx doe:0 dwe0:0 dwe1:0
#  iaddr:0008 idin:0cff ioe:1
#  alu_ain:3ffe alu_bin:3ffe alu_op:0000 reg_file_we:0 if_pc_we:0 led:000000
#  regs: 3ffe 8002 c002 00a2 005d 0000 0000 0000
#  mem[c000-c007]: 5d 5d xx xx xx xx xx xx
#  mem[c008-c00f]: xx xx xx xx xx xx xx xx
#  mem[c010-c017]: xx xx xx xx xx xx xx xx
#  mem[c018-c01f]: xx xx xx xx xx xx xx xx
#  mem[c020-c027]: xx xx xx xx xx xx xx xx
#  mem[c028-c02f]: xx xx xx xx xx xx xx xx
#  mem[c030-c037]: xx xx xx xx xx xx xx xx
# 
# ==== clock: 27 ====
#  if_pc:000a if_ir:0000110011111111
#  rf_pc:0008 rf_ir:0000001100110011 rf_treg1:00a2 rf_treg2:8002 rf_immediate:0033
#  ex_ir:0000000000000000 ex_result:3ffe
#  daddr:8002 ddin:a29d ddout:xxxx doe:1 dwe0:0 dwe1:0
#  iaddr:000a idin:0465 ioe:1
#  alu_ain:00a2 alu_bin:8002 alu_op:0011 reg_file_we:0 if_pc_we:0 led:000000
#  regs: 3ffe 8002 c002 00a2 005d 0000 0000 0000
#  mem[c000-c007]: 5d 5d xx xx xx xx xx xx
#  mem[c008-c00f]: xx xx xx xx xx xx xx xx
#  mem[c010-c017]: xx xx xx xx xx xx xx xx
#  mem[c018-c01f]: xx xx xx xx xx xx xx xx
#  mem[c020-c027]: xx xx xx xx xx xx xx xx
#  mem[c028-c02f]: xx xx xx xx xx xx xx xx
#  mem[c030-c037]: xx xx xx xx xx xx xx xx
# 
# ==== clock: 28 ====
#  if_pc:000c if_ir:0000010001100101
#  rf_pc:000a rf_ir:0000110011111111 rf_treg1:005d rf_treg2:0000 rf_immediate:00ff
#  ex_ir:0000001100110011 ex_result:00a2
#  daddr:0000 ddin:3040 ddout:xxxx doe:1 dwe0:0 dwe1:0
#  iaddr:000c idin:0452 ioe:1
#  alu_ain:005d alu_bin:00ff alu_op:0001 reg_file_we:1 if_pc_we:0 led:000000
#  regs: 3ffe 8002 c002 00a2 005d 0000 0000 0000
#  mem[c000-c007]: 5d 5d xx xx xx xx xx xx
#  mem[c008-c00f]: xx xx xx xx xx xx xx xx
#  mem[c010-c017]: xx xx xx xx xx xx xx xx
#  mem[c018-c01f]: xx xx xx xx xx xx xx xx
#  mem[c020-c027]: xx xx xx xx xx xx xx xx
#  mem[c028-c02f]: xx xx xx xx xx xx xx xx
#  mem[c030-c037]: xx xx xx xx xx xx xx xx
# 
# ==== clock: 29 ====
#  if_pc:000e if_ir:0000010001010010
#  rf_pc:000c rf_ir:0000010001100101 rf_treg1:00ff rf_treg2:00a2 rf_immediate:0065
#  ex_ir:0000110011111111 ex_result:00ff
#  daddr:00a2 ddin:xxxx ddout:xxxx doe:0 dwe0:0 dwe1:0
#  iaddr:000e idin:2101 ioe:1
#  alu_ain:00ff alu_bin:00a2 alu_op:0101 reg_file_we:1 if_pc_we:0 led:000000
#  regs: 3ffe 8002 c002 00a2 005d 0000 0000 0000
#  mem[c000-c007]: 5d 5d xx xx xx xx xx xx
#  mem[c008-c00f]: xx xx xx xx xx xx xx xx
#  mem[c010-c017]: xx xx xx xx xx xx xx xx
#  mem[c018-c01f]: xx xx xx xx xx xx xx xx
#  mem[c020-c027]: xx xx xx xx xx xx xx xx
#  mem[c028-c02f]: xx xx xx xx xx xx xx xx
#  mem[c030-c037]: xx xx xx xx xx xx xx xx
# 
# ==== clock: 30 ====
#  if_pc:0010 if_ir:0010000100000001
#  rf_pc:000e rf_ir:0000010001010010 rf_treg1:005d rf_treg2:c002 rf_immediate:0052
#  ex_ir:0000010001100101 ex_result:005d
#  daddr:c002 ddin:xxxx ddout:5d00 doe:0 dwe0:1 dwe1:0
#  iaddr:0010 idin:20ff ioe:1
#  alu_ain:005d alu_bin:c002 alu_op:0010 reg_file_we:1 if_pc_we:0 led:000000
#  regs: 3ffe 8002 c002 00a2 00ff 0000 0000 0000
#  mem[c000-c007]: 5d 5d xx xx xx xx xx xx
#  mem[c008-c00f]: xx xx xx xx xx xx xx xx
#  mem[c010-c017]: xx xx xx xx xx xx xx xx
#  mem[c018-c01f]: xx xx xx xx xx xx xx xx
#  mem[c020-c027]: xx xx xx xx xx xx xx xx
#  mem[c028-c02f]: xx xx xx xx xx xx xx xx
#  mem[c030-c037]: xx xx xx xx xx xx xx xx
# 
# ==== clock: 31 ====
#  if_pc:0012 if_ir:0010000011111111
#  rf_pc:0010 rf_ir:0010000100000001 rf_treg1:8002 rf_treg2:3ffe rf_immediate:0001
#  ex_ir:0000010001010010 ex_result:3ffd
#  daddr:3ffe ddin:xxxx ddout:xxxx doe:0 dwe0:0 dwe1:0
