risc16ba/sim_risc16ba.log
# vsim -do {add wave -r /sim_risc16ba/risc16ba_inst/* /sim_risc16ba/mem; run -all} -l sim_risc16ba.log -c -wlf sim_risc16ba.wlf sim_risc16ba 
# Loading sv_std.std
# Loading work.sim_risc16ba
# Loading work.risc16ba
# Loading work.reg_file
# Loading work.alu16
# add wave -r /sim_risc16ba/risc16ba_inst/* /sim_risc16ba/mem 
#  run -all 
# ==== clock: 0 ====
#  if_pc:0000 if_ir:0000000000000000
#  rf_pc:0000 rf_ir:0000000000000000 rf_treg1:0000 rf_treg2:0000 rf_immediate:0000
#  ex_ir:0000000000000000 ex_result:0000 ex_forwarding:0000
#  daddr:0000 ddin:xxxx ddout:0000 doe:0 dwe0:0 dwe1:0
#  iaddr:0000 idin:3602 ioe:1
#  alu_ain:0000 alu_bin:0000 alu_op:0000 reg_file_we:0 if_pc_we:0 led:000000
#  regs: 0000 0000 0000 0000 0000 0000 0000 0000
#  mem[00-07]: 36 02 37 01 5f 10 35 01
#  mem[08-0f]: 00 b1 25 02 04 e1 04 a5
#  mem[10-17]: 8c 1e 00 00 00 00 00 00
#  mem[18-1f]: 02 b1 01 41 01 05 99 08
# 
# ==== clock: 1 ====
#  if_pc:0002 if_ir:0011011000000010
#  rf_pc:0000 rf_ir:0000000000000000 rf_treg1:0000 rf_treg2:0000 rf_immediate:0000
#  ex_ir:0000000000000000 ex_result:0000 ex_forwarding:0000
#  daddr:0000 ddin:xxxx ddout:0000 doe:0 dwe0:0 dwe1:0
#  iaddr:0002 idin:3701 ioe:1
#  alu_ain:0000 alu_bin:0000 alu_op:0000 reg_file_we:0 if_pc_we:0 led:000000
#  regs: 0000 0000 0000 0000 0000 0000 0000 0000
#  mem[00-07]: 36 02 37 01 5f 10 35 01
#  mem[08-0f]: 00 b1 25 02 04 e1 04 a5
#  mem[10-17]: 8c 1e 00 00 00 00 00 00
#  mem[18-1f]: 02 b1 01 41 01 05 99 08
# 
# ==== clock: 2 ====
#  if_pc:0004 if_ir:0011011100000001
#  rf_pc:0002 rf_ir:0011011000000010 rf_treg1:0000 rf_treg2:0000 rf_immediate:0002
#  ex_ir:0000000000000000 ex_result:0000 ex_forwarding:0200
#  daddr:0000 ddin:xxxx ddout:xxxx doe:0 dwe0:0 dwe1:0
#  iaddr:0004 idin:5f10 ioe:1
#  alu_ain:0000 alu_bin:0002 alu_op:0110 reg_file_we:0 if_pc_we:0 led:000000
#  regs: 0000 0000 0000 0000 0000 0000 0000 0000
#  mem[00-07]: 36 02 37 01 5f 10 35 01
#  mem[08-0f]: 00 b1 25 02 04 e1 04 a5
#  mem[10-17]: 8c 1e 00 00 00 00 00 00
#  mem[18-1f]: 02 b1 01 41 01 05 99 08
# 
# ==== clock: 3 ====
#  if_pc:0006 if_ir:0101111100010000
#  rf_pc:0004 rf_ir:0011011100000001 rf_treg1:0000 rf_treg2:0000 rf_immediate:0001
#  ex_ir:0011011000000010 ex_result:0200 ex_forwarding:0100
#  daddr:0000 ddin:xxxx ddout:xxxx doe:0 dwe0:0 dwe1:0
#  iaddr:0006 idin:3501 ioe:1
#  alu_ain:0000 alu_bin:0001 alu_op:0110 reg_file_we:1 if_pc_we:0 led:000000
#  regs: 0000 0000 0000 0000 0000 0000 0000 0000
#  mem[00-07]: 36 02 37 01 5f 10 35 01
#  mem[08-0f]: 00 b1 25 02 04 e1 04 a5
#  mem[10-17]: 8c 1e 00 00 00 00 00 00
#  mem[18-1f]: 02 b1 01 41 01 05 99 08
# 
# ==== clock: 4 ====
#  if_pc:0008 if_ir:0011010100000001
#  rf_pc:0006 rf_ir:0101111100010000 rf_treg1:0100 rf_treg2:0000 rf_immediate:0010
#  ex_ir:0011011100000001 ex_result:0100 ex_forwarding:0110
#  daddr:0000 ddin:xxxx ddout:xxxx doe:0 dwe0:0 dwe1:0
#  iaddr:0008 idin:00b1 ioe:1
#  alu_ain:0100 alu_bin:0010 alu_op:1011 reg_file_we:1 if_pc_we:0 led:000000
#  regs: 0000 0000 0000 0000 0000 0000 0200 0000
#  mem[00-07]: 36 02 37 01 5f 10 35 01
#  mem[08-0f]: 00 b1 25 02 04 e1 04 a5
#  mem[10-17]: 8c 1e 00 00 00 00 00 00
#  mem[18-1f]: 02 b1 01 41 01 05 99 08
# 
# ==== clock: 5 ====
#  if_pc:000a if_ir:0000000010110001
#  rf_pc:0008 rf_ir:0011010100000001 rf_treg1:0000 rf_treg2:0000 rf_immediate:0001
#  ex_ir:0101111100010000 ex_result:0110 ex_forwarding:0100
#  daddr:0000 ddin:xxxx ddout:xxxx doe:0 dwe0:0 dwe1:0
#  iaddr:000a idin:2502 ioe:1
#  alu_ain:0000 alu_bin:0001 alu_op:0110 reg_file_we:1 if_pc_we:0 led:000000
#  regs: 0000 0000 0000 0000 0000 0000 0200 0100
#  mem[00-07]: 36 02 37 01 5f 10 35 01
#  mem[08-0f]: 00 b1 25 02 04 e1 04 a5
#  mem[10-17]: 8c 1e 00 00 00 00 00 00
#  mem[18-1f]: 02 b1 01 41 01 05 99 08
# 
# ==== clock: 6 ====
#  if_pc:000c if_ir:0010010100000010
#  rf_pc:000a rf_ir:0000000010110001 rf_treg1:0000 rf_treg2:0100 rf_immediate:00b1
#  ex_ir:0011010100000001 ex_result:0100 ex_forwarding:0014
#  daddr:0100 ddin:0014 ddout:xxxx doe:1 dwe0:0 dwe1:0
#  iaddr:000c idin:04e1 ioe:1
#  alu_ain:0000 alu_bin:0100 alu_op:0001 reg_file_we:1 if_pc_we:0 led:000000
#  regs: 0000 0000 0000 0000 0000 0000 0200 0110
#  mem[00-07]: 36 02 37 01 5f 10 35 01
#  mem[08-0f]: 00 b1 25 02 04 e1 04 a5
#  mem[10-17]: 8c 1e 00 00 00 00 00 00
#  mem[18-1f]: 02 b1 01 41 01 05 99 08
# 
# ==== clock: 7 ====
#  if_pc:000e if_ir:0000010011100001
#  rf_pc:000c rf_ir:0010010100000010 rf_treg1:0100 rf_treg2:0014 rf_immediate:0002
#  ex_ir:0000000010110001 ex_result:0014 ex_forwarding:0102
#  daddr:0014 ddin:xxxx ddout:xxxx doe:0 dwe0:0 dwe1:0
#  iaddr:000e idin:04a5 ioe:1
#  alu_ain:0100 alu_bin:0002 alu_op:0100 reg_file_we:1 if_pc_we:0 led:000000
#  regs: 0000 0000 0000 0000 0000 0100 0200 0110
#  mem[00-07]: 36 02 37 01 5f 10 35 01
#  mem[08-0f]: 00 b1 25 02 04 e1 04 a5
#  mem[10-17]: 8c 1e 00 00 00 00 00 00
#  mem[18-1f]: 02 b1 01 41 01 05 99 08
# 
# ==== clock: 8 ====
#  if_pc:0010 if_ir:0000010010100101
#  rf_pc:000e rf_ir:0000010011100001 rf_treg1:0000 rf_treg2:0110 rf_immediate:00e1
#  ex_ir:0010010100000010 ex_result:0102 ex_forwarding:0110
#  daddr:0110 ddin:xxxx ddout:0000 doe:0 dwe0:0 dwe1:0
#  iaddr:0010 idin:8c1e ioe:1
#  alu_ain:0000 alu_bin:0110 alu_op:0001 reg_file_we:1 if_pc_we:0 led:000000
#  regs: 0014 0000 0000 0000 0000 0100 0200 0110
#  mem[00-07]: 36 02 37 01 5f 10 35 01
#  mem[08-0f]: 00 b1 25 02 04 e1 04 a5
#  mem[10-17]: 8c 1e 00 00 00 00 00 00
#  mem[18-1f]: 02 b1 01 41 01 05 99 08
# 
# ==== clock: 9 ====
#  if_pc:0012 if_ir:1000110000011110
#  rf_pc:0010 rf_ir:0000010010100101 rf_treg1:0110 rf_treg2:0102 rf_immediate:00a5
#  ex_ir:0000010011100001 ex_result:0110 ex_forwarding:000e
#  daddr:0102 ddin:xxxx ddout:0110 doe:0 dwe0:0 dwe1:0
#  iaddr:0012 idin:0000 ioe:1
#  alu_ain:0110 alu_bin:0102 alu_op:0101 reg_file_we:1 if_pc_we:0 led:000000
#  regs: 0014 0000 0000 0000 0000 0102 0200 0110
#  mem[00-07]: 36 02 37 01 5f 10 35 01
#  mem[08-0f]: 00 b1 25 02 04 e1 04 a5
#  mem[10-17]: 8c 1e 00 00 00 00 00 00
#  mem[18-1f]: 02 b1 01 41 01 05 99 08
# 
# ==== clock: 10 ====
#  if_pc:0014 if_ir:0000000000000000
#  rf_pc:0012 rf_ir:1000110000011110 rf_treg1:000e rf_treg2:0014 rf_immediate:001e
#  ex_ir:0000010010100101 ex_result:000e ex_forwarding:0030
#  daddr:0014 ddin:xxxx ddout:xxxx doe:0 dwe0:0 dwe1:0
#  iaddr:0014 idin:0000 ioe:1
#  alu_ain:0012 alu_bin:001e alu_op:0100 reg_file_we:1 if_pc_we:0 led:000000
#  regs: 0014 0000 0000 0000 0110 0102 0200 0110
#  mem[00-07]: 36 02 37 01 5f 10 35 01
#  mem[08-0f]: 00 b1 25 02 04 e1 04 a5
#  mem[10-17]: 8c 1e 00 00 00 00 00 00
#  mem[18-1f]: 02 b1 01 41 01 05 99 08
# 
# ==== clock: 11 ====
#  if_pc:0016 if_ir:0000000000000000
#  rf_pc:0014 rf_ir:0000000000000000 rf_treg1:0014 rf_treg2:0014 rf_immediate:0000
#  ex_ir:1000110000011110 ex_result:0030 ex_forwarding:0014
#  daddr:0014 ddin:xxxx ddout:0014 doe:0 dwe0:0 dwe1:0
#  iaddr:0016 idin:0000 ioe:1
#  alu_ain:0014 alu_bin:0014 alu_op:0000 reg_file_we:0 if_pc_we:0 led:000000
#  regs: 0014 0000 0000 0000 000e 0102 0200 0110
#  mem[00-07]: 36 02 37 01 5f 10 35 01
#  mem[08-0f]: 00 b1 25 02 04 e1 04 a5
#  mem[10-17]: 8c 1e 00 00 00 00 00 00
#  mem[18-1f]: 02 b1 01 41 01 05 99 08
# 
# ==== clock: 12 ====
#  if_pc:0018 if_ir:0000000000000000
#  rf_pc:0016 rf_ir:0000000000000000 rf_treg1:0014 rf_treg2:0014 rf_immediate:0000
#  ex_ir:0000000000000000 ex_result:0014 ex_forwarding:0014
#  daddr:0014 ddin:xxxx ddout:0014 doe:0 dwe0:0 dwe1:0
#  iaddr:0018 idin:02b1 ioe:1
#  alu_ain:0014 alu_bin:0014 alu_op:0000 reg_file_we:0 if_pc_we:0 led:000000
#  regs: 0014 0000 0000 0000 000e 0102 0200 0110
#  mem[00-07]: 36 02 37 01 5f 10 35 01
#  mem[08-0f]: 00 b1 25 02 04 e1 04 a5
#  mem[10-17]: 8c 1e 00 00 00 00 00 00
#  mem[18-1f]: 02 b1 01 41 01 05 99 08
# 
# ==== clock: 13 ====
#  if_pc:001a if_ir:0000001010110001
#  rf_pc:0018 rf_ir:0000000000000000 rf_treg1:0014 rf_treg2:0014 rf_immediate:0000
#  ex_ir:0000000000000000 ex_result:0014 ex_forwarding:0014
#  daddr:0014 ddin:xxxx ddout:0014 doe:0 dwe0:0 dwe1:0
#  iaddr:001a idin:0141 ioe:1
#  alu_ain:0014 alu_bin:0014 alu_op:0000 reg_file_we:0 if_pc_we:0 led:000000
#  regs: 0014 0000 0000 0000 000e 0102 0200 0110
#  mem[00-07]: 36 02 37 01 5f 10 35 01
#  mem[08-0f]: 00 b1 25 02 04 e1 04 a5
#  mem[10-17]: 8c 1e 00 00 00 00 00 00
#  mem[18-1f]: 02 b1 01 41 01 05 99 08
# 
# ==== clock: 14 ====
#  if_pc:001c if_ir:0000000101000001
#  rf_pc:001a rf_ir:0000001010110001 rf_treg1:0000 rf_treg2:0102 rf_immediate:00b1
#  ex_ir:0000000000000000 ex_result:0014 ex_forwarding:05ff
#  daddr:0102 ddin:05ff ddout:xxxx doe:1 dwe0:0 dwe1:0
#  iaddr:001c idin:0105 ioe:1
#  alu_ain:0000 alu_bin:0102 alu_op:0001 reg_file_we:0 if_pc_we:0 led:000000
#  regs: 0014 0000 0000 0000 000e 0102 0200 0110
#  mem[00-07]: 36 02 37 01 5f 10 35 01
#  mem[08-0f]: 00 b1 25 02 04 e1 04 a5
#  mem[10-17]: 8c 1e 00 00 00 00 00 00
#  mem[18-1f]: 02 b1 01 41 01 05 99 08
# 
# ==== clock: 15 ====
#  if_pc:001e if_ir:0000000100000101
#  rf_pc:001c rf_ir:0000000101000001 rf_treg1:0000 rf_treg2:05ff rf_immediate:0041
#  ex_ir:0000001010110001 ex_result:05ff ex_forwarding:05ff
#  daddr:05ff ddin:xxxx ddout:0000 doe:0 dwe0:0 dwe1:0
#  iaddr:001e idin:9908 ioe:1
#  alu_ain:0000 alu_bin:05ff alu_op:0001 reg_file_we:1 if_pc_we:0 led:000000
#  regs: 0014 0000 0000 0000 000e 0102 0200 0110
#  mem[00-07]: 36 02 37 01 5f 10 35 01
#  mem[08-0f]: 00 b1 25 02 04 e1 04 a5
#  mem[10-17]: 8c 1e 00 00 00 00 00 00
#  mem[18-1f]: 02 b1 01 41 01 05 99 08
# 
# ==== clock: 16 ====
#  if_pc:0020 if_ir:1001100100001000
#  rf_pc:001e rf_ir:0000000100000101 rf_treg1:05ff rf_treg2:0014 rf_immediate:0005
#  ex_ir:0000000101000001 ex_result:05ff ex_forwarding:05eb
#  daddr:0014 ddin:xxxx ddout:05ff doe:0 dwe0:0 dwe1:0
#  iaddr:0020 idin:0000 ioe:1
#  alu_ain:05ff alu_bin:0014 alu_op:0101 reg_file_we:1 if_pc_we:0 led:000000
#  regs: 0014 0000 05ff 0000 000e 0102 0200 0110
#  mem[00-07]: 36 02 37 01 5f 10 35 01
#  mem[08-0f]: 00 b1 25 02 04 e1 04 a5
#  mem[10-17]: 8c 1e 00 00 00 00 00 00
#  mem[18-1f]: 02 b1 01 41 01 05 99 08
# 
# ==== clock: 17 ====
#  if_pc:0022 if_ir:0000000000000000
#  rf_pc:0020 rf_ir:1001100100001000 rf_treg1:05eb rf_treg2:0014 rf_immediate:0008
#  ex_ir:0000000100000101 ex_result:05eb ex_forwarding:0028
#  daddr:0014 ddin:xxxx ddout:xxxx doe:0 dwe0:0 dwe1:0
#  iaddr:0022 idin:0000 ioe:1
#  alu_ain:0020 alu_bin:0008 alu_op:0100 reg_file_we:1 if_pc_we:0 led:000000
#  regs: 0014 05ff 05ff 0000 000e 0102 0200 0110
#  mem[00-07]: 36 02 37 01 5f 10 35 01
#  mem[08-0f]: 00 b1 25 02 04 e1 04 a5
#  mem[10-17]: 8c 1e 00 00 00 00 00 00
#  mem[18-1f]: 02 b1 01 41 01 05 99 08
# 
# ==== clock: 18 ====
#  if_pc:0024 if_ir:0000000000000000
#  rf_pc:0022 rf_ir:0000000000000000 rf_treg1:0014 rf_treg2:0014 rf_immediate:0000
#  ex_ir:1001100100001000 ex_result:0028 ex_forwarding:0014
#  daddr:0014 ddin:xxxx ddout:0014 doe:0 dwe0:0 dwe1:0
#  iaddr:0024 idin:0000 ioe:1
#  alu_ain:0014 alu_bin:0014 alu_op:0000 reg_file_we:0 if_pc_we:1 led:000000
#  regs: 0014 05eb 05ff 0000 000e 0102 0200 0110
#  mem[00-07]: 36 02 37 01 5f 10 35 01
#  mem[08-0f]: 00 b1 25 02 04 e1 04 a5
#  mem[10-17]: 8c 1e 00 00 00 00 00 00
#  mem[18-1f]: 02 b1 01 41 01 05 99 08
# 
# ==== clock: 19 ====
#  if_pc:0028 if_ir:0000000000000000
#  rf_pc:0024 rf_ir:0000000000000000 rf_treg1:0014 rf_treg2:0014 rf_immediate:0000
#  ex_ir:0000000000000000 ex_result:0014 ex_forwarding:0014
#  daddr:0014 ddin:xxxx ddout:0014 doe:0 dwe0:0 dwe1:0
#  iaddr:0028 idin:c7e0 ioe:1
#  alu_ain:0014 alu_bin:0014 alu_op:0000 reg_file_we:0 if_pc_we:0 led:000000
#  regs: 0014 05eb 05ff 0000 000e 0102 0200 0110
#  mem[00-07]: 36 02 37 01 5f 10 35 01
#  mem[08-0f]: 00 b1 25 02 04 e1 04 a5
#  mem[10-17]: 8c 1e 00 00 00 00 00 00
#  mem[18-1f]: 02 b1 01 41 01 05 99 08
# 
# ==== clock: 20 ====
#  if_pc:002a if_ir:1100011111100000
#  rf_pc:0028 rf_ir:0000000000000000 rf_treg1:0014 rf_treg2:0014 rf_immediate:0000
#  ex_ir:0000000000000000 ex_result:0014 ex_forwarding:0014
#  daddr:0014 ddin:xxxx ddout:0014 doe:0 dwe0:0 dwe1:0
#  iaddr:002a idin:0000 ioe:1
#  alu_ain:0014 alu_bin:0014 alu_op:0000 reg_file_we:0 if_pc_we:0 led:000000
#  regs: 0014 05eb 05ff 0000 000e 0102 0200 0110
#  mem[00-07]: 36 02 37 01 5f 10 35 01
#  mem[08-0f]: 00 b1 25 02 04 e1 04 a5
#  mem[10-17]: 8c 1e 00 00 00 00 00 00
#  mem[18-1f]: 02 b1 01 41 01 05 99 08
# 
# ==== clock: 21 ====
#  if_pc:002c if_ir:0000000000000000
#  rf_pc:002a rf_ir:1100011111100000 rf_treg1:0110 rf_treg2:0110 rf_immediate:ffe0
#  ex_ir:0000000000000000 ex_result:0014 ex_forwarding:000a
#  daddr:0110 ddin:xxxx ddout:xxxx doe:0 dwe0:0 dwe1:0
#  iaddr:002c idin:0000 ioe:1
#  alu_ain:002a alu_bin:ffe0 alu_op:0100 reg_file_we:0 if_pc_we:0 led:000000
#  regs: 0014 05eb 05ff 0000 000e 0102 0200 0110
#  mem[00-07]: 36 02 37 01 5f 10 35 01
#  mem[08-0f]: 00 b1 25 02 04 e1 04 a5
#  mem[10-17]: 8c 1e 00 00 00 00 00 00
#  mem[18-1f]: 02 b1 01 41 01 05 99 08
# 
# ==== clock: 22 ====
#  if_pc:002e if_ir:0000000000000000
#  rf_pc:002c rf_ir:0000000000000000 rf_treg1:0014 rf_treg2:0014 rf_immediate:0000
#  ex_ir:1100011111100000 ex_result:000a ex_forwarding:0014
#  daddr:0014 ddin:xxxx ddout:0014 doe:0 dwe0:0 dwe1:0
#  iaddr:002e idin:0000 ioe:1
#  alu_ain:0014 alu_bin:0014 alu_op:0000 reg_file_we:0 if_pc_we:1 led:000000
#  regs: 0014 05eb 05ff 0000 000e 0102 0200 0110
#  mem[00-07]: 36 02 37 01 5f 10 35 01
#  mem[08-0f]: 00 b1 25 02 04 e1 04 a5
#  mem[10-17]: 8c 1e 00 00 00 00 00 00
#  mem[18-1f]: 02 b1 01 41 01 05 99 08
# 
# ==== clock: 23 ====
#  if_pc:000a if_ir:0000000000000000
#  rf_pc:002e rf_ir:0000000000000000 rf_treg1:0014 rf_treg2:0014 rf_immediate:0000
#  ex_ir:0000000000000000 ex_result:0014 ex_forwarding:0014
#  daddr:0014 ddin:xxxx ddout:0014 doe:0 dwe0:0 dwe1:0
#  iaddr:000a idin:2502 ioe:1
#  alu_ain:0014 alu_bin:0014 alu_op:0000 reg_file_we:0 if_pc_we:0 led:000000
#  regs: 0014 05eb 05ff 0000 000e 0102 0200 0110
#  mem[00-07]: 36 02 37 01 5f 10 35 01
#  mem[08-0f]: 00 b1 25 02 04 e1 04 a5
#  mem[10-17]: 8c 1e 00 00 00 00 00 00
#  mem[18-1f]: 02 b1 01 41 01 05 99 08
# 
# ==== clock: 24 ====
#  if_pc:000c if_ir:0010010100000010
#  rf_pc:000a rf_ir:0000000000000000 rf_treg1:0014 rf_treg2:0014 rf_immediate:0000
#  ex_ir:0000000000000000 ex_result:0014 ex_forwarding:0014
#  daddr:0014 ddin:xxxx ddout:0014 doe:0 dwe0:0 dwe1:0
#  iaddr:000c idin:04e1 ioe:1
#  alu_ain:0014 alu_bin:0014 alu_op:0000 reg_file_we:0 if_pc_we:0 led:000000
#  regs: 0014 05eb 05ff 0000 000e 0102 0200 0110
#  mem[00-07]: 36 02 37 01 5f 10 35 01
#  mem[08-0f]: 00 b1 25 02 04 e1 04 a5
#  mem[10-17]: 8c 1e 00 00 00 00 00 00
#  mem[18-1f]: 02 b1 01 41 01 05 99 08
# 
# ==== clock: 25 ====
#  if_pc:000e if_ir:0000010011100001
#  rf_pc:000c rf_ir:0010010100000010 rf_treg1:0102 rf_treg2:0014 rf_immediate:0002
#  ex_ir:0000000000000000 ex_result:0014 ex_forwarding:0104
#  daddr:0014 ddin:xxxx ddout:xxxx doe:0 dwe0:0 dwe1:0
#  iaddr:000e idin:04a5 ioe:1
#  alu_ain:0102 alu_bin:0002 alu_op:0100 reg_file_we:0 if_pc_we:0 led:000000
#  regs: 0014 05eb 05ff 0000 000e 0102 0200 0110
#  mem[00-07]: 36 02 37 01 5f 10 35 01
#  mem[08-0f]: 00 b1 25 02 04 e1 04 a5
#  mem[10-17]: 8c 1e 00 00 00 00 00 00
#  mem[18-1f]: 02 b1 01 41 01 05 99 08
# 
# ==== clock: 26 ====
#  if_pc:0010 if_ir:0000010010100101
#  rf_pc:000e rf_ir:0000010011100001 rf_treg1:000e rf_treg2:0110 rf_immediate:00e1
#  ex_ir:0010010100000010 ex_result:0104 ex_forwarding:0110
#  daddr:0110 ddin:xxxx ddout:000e doe:0 dwe0:0 dwe1:0
#  iaddr:0010 idin:8c1e ioe:1
#  alu_ain:000e alu_bin:0110 alu_op:0001 reg_file_we:1 if_pc_we:0 led:000000
#  regs: 0014 05eb 05ff 0000 000e 0102 0200 0110
#  mem[00-07]: 36 02 37 01 5f 10 35 01
#  mem[08-0f]: 00 b1 25 02 04 e1 04 a5
#  mem[10-17]: 8c 1e 00 00 00 00 00 00
#  mem[18-1f]: 02 b1 01 41 01 05 99 08
# 
# ==== clock: 27 ====
#  if_pc:0012 if_ir:1000110000011110
#  rf_pc:0010 rf_ir:0000010010100101 rf_treg1:0110 rf_treg2:0104 rf_immediate:00a5
#  ex_ir:0000010011100001 ex_result:0110 ex_forwarding:000c
#  daddr:0104 ddin:xxxx ddout:0110 doe:0 dwe0:0 dwe1:0
#  iaddr:0012 idin:0000 ioe:1
#  alu_ain:0110 alu_bin:0104 alu_op:0101 reg_file_we:1 if_pc_we:0 led:000000
#  regs: 0014 05eb 05ff 0000 000e 0104 0200 0110
#  mem[00-07]: 36 02 37 01 5f 10 35 01
#  mem[08-0f]: 00 b1 25 02 04 e1 04 a5
#  mem[10-17]: 8c 1e 00 00 00 00 00 00
#  mem[18-1f]: 02 b1 01 41 01 05 99 08
# 
# ==== clock: 28 ====
#  if_pc:0014 if_ir:0000000000000000
#  rf_pc:0012 rf_ir:1000110000011110 rf_treg1:000c rf_treg2:0014 rf_immediate:001e
#  ex_ir:0000010010100101 ex_result:000c ex_forwarding:0030
#  daddr:0014 ddin:xxxx ddout:xxxx doe:0 dwe0:0 dwe1:0
#  iaddr:0014 idin:0000 ioe:1
#  alu_ain:0012 alu_bin:001e alu_op:0100 reg_file_we:1 if_pc_we:0 led:000000
#  regs: 0014 05eb 05ff 0000 0110 0104 0200 0110
#  mem[00-07]: 36 02 37 01 5f 10 35 01
#  mem[08-0f]: 00 b1 25 02 04 e1 04 a5
#  mem[10-17]: 8c 1e 00 00 00 00 00 00
#  mem[18-1f]: 02 b1 01 41 01 05 99 08
# 
# ==== clock: 29 ====
#  if_pc:0016 if_ir:0000000000000000
#  rf_pc:0014 rf_ir:0000000000000000 rf_treg1:0014 rf_treg2:0014 rf_immediate:0000
#  ex_ir:1000110000011110 ex_result:0030 ex_forwarding:0014
#  daddr:0014 ddin:xxxx ddout:0014 doe:0 dwe0:0 dwe1:0
#  iaddr:0016 idin:0000 ioe:1
#  alu_ain:0014 alu_bin:0014 alu_op:0000 reg_file_we:0 if_pc_we:0 led:000000
#  regs: 0014 05eb 05ff 0000 000c 0104 0200 0110
#  mem[00-07]: 36 02 37 01 5f 10 35 01
#  mem[08-0f]: 00 b1 25 02 04 e1 04 a5
#  mem[10-17]: 8c 1e 00 00 00 00 00 00
#  mem[18-1f]: 02 b1 01 41 01 05 99 08
# 
# ==== clock: 30 ====
#  if_pc:0018 if_ir:0000000000000000
#  rf_pc:0016 rf_ir:0000000000000000 rf_treg1:0014 rf_treg2:0014 rf_immediate:0000
#  ex_ir:0000000000000000 ex_result:0014 ex_forwarding:0014
#  daddr:0014 ddin:xxxx ddout:0014 doe:0 dwe0:0 dwe1:0
#  iaddr:0018 idin:02b1 ioe:1
#  alu_ain:0014 alu_bin:0014 alu_op:0000 reg_file_we:0 if_pc_we:0 led:000000
#  regs: 0014 05eb 05ff 0000 000c 0104 0200 0110
#  mem[00-07]: 36 02 37 01 5f 10 35 01
#  mem[08-0f]: 00 b1 25 02 04 e1 04 a5
#  mem[10-17]: 8c 1e 00 00 00 00 00 00
#  mem[18-1f]: 02 b1 01 41 01 05 99 08
# 
# ==== clock: 31 ====
#  if_pc:001a if_ir:0000001010110001
#  rf_pc:0018 rf_ir:0000000000000000 rf_treg1:0014 rf_treg2:0014 rf_immediate:0000
#  ex_ir:0000000000000000 ex_result:0014 ex_forwarding:0014
#  daddr:0014 ddin:xxxx ddout:0014 doe:0 dwe0:0 dwe1:0
#  iaddr:001a idin:0141 ioe:1
#  alu_ain:0014 alu_bin:0014 alu_op:0000 reg_file_we:0 if_pc_we:0 led:000000
#  regs: 0014 05eb 05ff 0000 000c 0104 0200 0110
#  mem[00-07]: 36 02 37 01 5f 10 35 01
#  mem[08-0f]: 00 b1 25 02 04 e1 04 a5
#  mem[10-17]: 8c 1e 00 00 00 00 00 00
#  mem[18-1f]: 02 b1 01 41 01 05 99 08
# 
# ==== clock: 32 ====
#  if_pc:001c if_ir:0000000101000001
#  rf_pc:001a rf_ir:0000001010110001 rf_treg1:05ff rf_treg2:0104 rf_immediate:00b1
#  ex_ir:0000000000000000 ex_result:0014 ex_forwarding:00ab
#  daddr:0104 ddin:00ab ddout:xxxx doe:1 dwe0:0 dwe1:0
#  iaddr:001c idin:0105 ioe:1
#  alu_ain:05ff alu_bin:0104 alu_op:0001 reg_file_we:0 if_pc_we:0 led:000000
#  regs: 0014 05eb 05ff 0000 000c 0104 0200 0110
#  mem[00-07]: 36 02 37 01 5f 10 35 01
#  mem[08-0f]: 00 b1 25 02 04 e1 04 a5
#  mem[10-17]: 8c 1e 00 00 00 00 00 00
#  mem[18-1f]: 02 b1 01 41 01 05 99 08
# 
# ==== clock: 33 ====
#  if_pc:001e if_ir:0000000100000101
#  rf_pc:001c rf_ir:0000000101000001 rf_treg1:05eb rf_treg2:00ab rf_immediate:0041
#  ex_ir:0000001010110001 ex_result:00ab ex_forwarding:00ab
#  daddr:00ab ddin:xxxx ddout:05eb doe:0 dwe0:0 dwe1:0
#  iaddr:001e idin:9908 ioe:1
#  alu_ain:05eb alu_bin:00ab alu_op:0001 reg_file_we:1 if_pc_we:0 led:000000
#  regs: 0014 05eb 05ff 0000 000c 0104 0200 0110
#  mem[00-07]: 36 02 37 01 5f 10 35 01
#  mem[08-0f]: 00 b1 25 02 04 e1 04 a5
#  mem[10-17]: 8c 1e 00 00 00 00 00 00
#  mem[18-1f]: 02 b1 01 41 01 05 99 08
# 
# ==== clock: 34 ====
#  if_pc:0020 if_ir:1001100100001000
#  rf_pc:001e rf_ir:0000000100000101 rf_treg1:00ab rf_treg2:0014 rf_immediate:0005
#  ex_ir:0000000101000001 ex_result:00ab ex_forwarding:0097
#  daddr:0014 ddin:xxxx ddout:00ab doe:0 dwe0:0 dwe1:0
#  iaddr:0020 idin:0000 ioe:1
#  alu_ain:00ab alu_bin:0014 alu_op:0101 reg_file_we:1 if_pc_we:0 led:000000
#  regs: 0014 05eb 00ab 0000 000c 0104 0200 0110
#  mem[00-07]: 36 02 37 01 5f 10 35 01
#  mem[08-0f]: 00 b1 25 02 04 e1 04 a5
#  mem[10-17]: 8c 1e 00 00 00 00 00 00
#  mem[18-1f]: 02 b1 01 41 01 05 99 08
# 
# ==== clock: 35 ====
#  if_pc:0022 if_ir:0000000000000000
#  rf_pc:0020 rf_ir:1001100100001000 rf_treg1:0097 rf_treg2:0014 rf_immediate:0008
#  ex_ir:0000000100000101 ex_result:0097 ex_forwarding:0028
#  daddr:0014 ddin:xxxx ddout:xxxx doe:0 dwe0:0 dwe1:0
#  iaddr:0022 idin:0000 ioe:1
#  alu_ain:0020 alu_bin:0008 alu_op:0100 reg_file_we:1 if_pc_we:0 led:000000
#  regs: 0014 00ab 00ab 0000 000c 0104 0200 0110
#  mem[00-07]: 36 02 37 01 5f 10 35 01
#  mem[08-0f]: 00 b1 25 02 04 e1 04 a5
#  mem[10-17]: 8c 1e 00 00 00 00 00 00
#  mem[18-1f]: 02 b1 01 41 01 05 99 08
# 
# ==== clock: 36 ====
#  if_pc:0024 if_ir:0000000000000000
#  rf_pc:0022 rf_ir:0000000000000000 rf_treg1:0014 rf_treg2:0014 rf_immediate:0000
#  ex_ir:1001100100001000 ex_result:0028 ex_forwarding:0014
#  daddr:0014 ddin:xxxx ddout:0014 doe:0 dwe0:0 dwe1:0
#  iaddr:0024 idin:0000 ioe:1
#  alu_ain:0014 alu_bin:0014 alu_op:0000 reg_file_we:0 if_pc_we:1 led:000000
#  regs: 0014 0097 00ab 0000 000c 0104 0200 0110
#  mem[00-07]: 36 02 37 01 5f 10 35 01
#  mem[08-0f]: 00 b1 25 02 04 e1 04 a5
#  mem[10-17]: 8c 1e 00 00 00 00 00 00
#  mem[18-1f]: 02 b1 01 41 01 05 99 08
# 
# ==== clock: 37 ====
#  if_pc:0028 if_ir:0000000000000000
#  rf_pc:0024 rf_ir:0000000000000000 rf_treg1:0014 rf_treg2:0014 rf_immediate:0000
#  ex_ir:0000000000000000 ex_result:0014 ex_forwarding:0014
#  daddr:0014 ddin:xxxx ddout:0014 doe:0 dwe0:0 dwe1:0
#  iaddr:0028 idin:c7e0 ioe:1
#  alu_ain:0014 alu_bin:0014 alu_op:0000 reg_file_we:0 if_pc_we:0 led:000000
#  regs: 0014 0097 00ab 0000 000c 0104 0200 0110
#  mem[00-07]: 36 02 37 01 5f 10 35 01
#  mem[08-0f]: 00 b1 25 02 04 e1 04 a5
#  mem[10-17]: 8c 1e 00 00 00 00 00 00
