old/risc16f/res/res0.txt
asm-risc16 sim_risc16f.asm -o sim_risc16f.mem
vlog sim_risc16f.sv risc16f.sv
Model Technology ModelSim ALTERA vlog 10.1d Compiler 2012.11 Nov  2 2012
-- Compiling module sim_risc16f
-- Compiling module risc16f
-- Compiling module reg_file
-- Compiling module alu16

Top level modules:
	sim_risc16f
vsim -c sim_risc16f -l sim_risc16f.log -wlf sim_risc16f.wlf -do "add wave -r /sim_risc16f/risc16f_inst/* /sim_risc16f/mem; run -all"
Reading /opt/altera/13.0sp1/modelsim_ase/tcl/vsim/pref.tcl 

# 10.1d

# vsim -do {add wave -r /sim_risc16f/risc16f_inst/* /sim_risc16f/mem; run -all} -l sim_risc16f.log -c -wlf sim_risc16f.wlf sim_risc16f 
# Loading sv_std.std
# Loading work.sim_risc16f
# Loading work.risc16f
# Loading work.reg_file
# Loading work.alu16
# add wave -r /sim_risc16f/risc16f_inst/* /sim_risc16f/mem 
#  run -all 
# ==== clock: 0 ====
#  if_pc:0000 if_ir:0000000000000000
#  rf_pc:0000 rf_ir:0000000000000000 rf_treg1:0000 rf_treg2:0000 rf_immediate:0000
#  ex_ir:0000000000000000 ex_result:0000
#  daddr:0000 ddin:xxxx ddout:0000 doe:0 dwe:0
#  iaddr:0000 idin:3602 ioe:1
#  alu_ain:0000 alu_bin:0000 alu_op:0000 reg_file_we:0 if_pc_we:0
#  alu_out:0000  ex_forwarding:0000
#  led:000000
#  regs: 0000 0000 0000 0000 0000 0000 0000 0000
#  mem[00-07]: 36 02 37 01 5f 10 35 01
#  mem[08-0f]: 00 b1 25 02 04 e1 04 a5
#  mem[10-17]: 8c 1e 00 00 00 00 00 00
#  mem[18-1f]: 02 b1 01 41 01 05 99 08
#  mem[20-27]: 00 00 00 00 00 00 00 41
#  mem[28-2f]: c7 e0 00 00 00 00 00 00
#  mem[30-37]: 00 d0 c7 fe 00 00 00 00
# 
# ==== clock: 1 ====
#  if_pc:0002 if_ir:0011011000000010
#  rf_pc:0000 rf_ir:0000000000000000 rf_treg1:0000 rf_treg2:0000 rf_immediate:0000
#  ex_ir:0000000000000000 ex_result:0000
#  daddr:0000 ddin:xxxx ddout:0000 doe:0 dwe:0
#  iaddr:0002 idin:3701 ioe:1
#  alu_ain:0000 alu_bin:0000 alu_op:0000 reg_file_we:0 if_pc_we:0
#  alu_out:0000  ex_forwarding:0000
#  led:000000
#  regs: 0000 0000 0000 0000 0000 0000 0000 0000
#  mem[00-07]: 36 02 37 01 5f 10 35 01
#  mem[08-0f]: 00 b1 25 02 04 e1 04 a5
#  mem[10-17]: 8c 1e 00 00 00 00 00 00
#  mem[18-1f]: 02 b1 01 41 01 05 99 08
#  mem[20-27]: 00 00 00 00 00 00 00 41
#  mem[28-2f]: c7 e0 00 00 00 00 00 00
#  mem[30-37]: 00 d0 c7 fe 00 00 00 00
# 
# ==== clock: 2 ====
#  if_pc:0004 if_ir:0011011100000001
#  rf_pc:0002 rf_ir:0011011000000010 rf_treg1:0000 rf_treg2:0000 rf_immediate:0002
#  ex_ir:0000000000000000 ex_result:0000
#  daddr:0000 ddin:xxxx ddout:xxxx doe:0 dwe:0
#  iaddr:0004 idin:5f10 ioe:1
#  alu_ain:0000 alu_bin:0002 alu_op:0110 reg_file_we:0 if_pc_we:0
#  alu_out:0200  ex_forwarding:0200
#  led:000000
#  regs: 0000 0000 0000 0000 0000 0000 0000 0000
#  mem[00-07]: 36 02 37 01 5f 10 35 01
#  mem[08-0f]: 00 b1 25 02 04 e1 04 a5
#  mem[10-17]: 8c 1e 00 00 00 00 00 00
#  mem[18-1f]: 02 b1 01 41 01 05 99 08
#  mem[20-27]: 00 00 00 00 00 00 00 41
#  mem[28-2f]: c7 e0 00 00 00 00 00 00
#  mem[30-37]: 00 d0 c7 fe 00 00 00 00
# 
# ==== clock: 3 ====
#  if_pc:0006 if_ir:0101111100010000
#  rf_pc:0004 rf_ir:0011011100000001 rf_treg1:0000 rf_treg2:0000 rf_immediate:0001
#  ex_ir:0011011000000010 ex_result:0200
#  daddr:0000 ddin:xxxx ddout:xxxx doe:0 dwe:0
#  iaddr:0006 idin:3501 ioe:1
#  alu_ain:0000 alu_bin:0001 alu_op:0110 reg_file_we:1 if_pc_we:0
#  alu_out:0100  ex_forwarding:0100
#  led:000000
#  regs: 0000 0000 0000 0000 0000 0000 0000 0000
#  mem[00-07]: 36 02 37 01 5f 10 35 01
#  mem[08-0f]: 00 b1 25 02 04 e1 04 a5
#  mem[10-17]: 8c 1e 00 00 00 00 00 00
#  mem[18-1f]: 02 b1 01 41 01 05 99 08
#  mem[20-27]: 00 00 00 00 00 00 00 41
#  mem[28-2f]: c7 e0 00 00 00 00 00 00
#  mem[30-37]: 00 d0 c7 fe 00 00 00 00
# 
# ==== clock: 4 ====
#  if_pc:0008 if_ir:0011010100000001
#  rf_pc:0006 rf_ir:0101111100010000 rf_treg1:0100 rf_treg2:0000 rf_immediate:0010
#  ex_ir:0011011100000001 ex_result:0100
#  daddr:0000 ddin:xxxx ddout:xxxx doe:0 dwe:0
#  iaddr:0008 idin:00b1 ioe:1
#  alu_ain:0100 alu_bin:0010 alu_op:1011 reg_file_we:1 if_pc_we:0
#  alu_out:0110  ex_forwarding:0110
#  led:000000
#  regs: 0000 0000 0000 0000 0000 0000 0200 0000
#  mem[00-07]: 36 02 37 01 5f 10 35 01
#  mem[08-0f]: 00 b1 25 02 04 e1 04 a5
#  mem[10-17]: 8c 1e 00 00 00 00 00 00
#  mem[18-1f]: 02 b1 01 41 01 05 99 08
#  mem[20-27]: 00 00 00 00 00 00 00 41
#  mem[28-2f]: c7 e0 00 00 00 00 00 00
#  mem[30-37]: 00 d0 c7 fe 00 00 00 00
# 
# ==== clock: 5 ====
#  if_pc:000a if_ir:0000000010110001
#  rf_pc:0008 rf_ir:0011010100000001 rf_treg1:0000 rf_treg2:0000 rf_immediate:0001
#  ex_ir:0101111100010000 ex_result:0110
#  daddr:0000 ddin:xxxx ddout:xxxx doe:0 dwe:0
#  iaddr:000a idin:2502 ioe:1
#  alu_ain:0000 alu_bin:0001 alu_op:0110 reg_file_we:1 if_pc_we:0
#  alu_out:0100  ex_forwarding:0100
#  led:000000
#  regs: 0000 0000 0000 0000 0000 0000 0200 0100
#  mem[00-07]: 36 02 37 01 5f 10 35 01
#  mem[08-0f]: 00 b1 25 02 04 e1 04 a5
#  mem[10-17]: 8c 1e 00 00 00 00 00 00
#  mem[18-1f]: 02 b1 01 41 01 05 99 08
#  mem[20-27]: 00 00 00 00 00 00 00 41
#  mem[28-2f]: c7 e0 00 00 00 00 00 00
#  mem[30-37]: 00 d0 c7 fe 00 00 00 00
# 
# ==== clock: 6 ====
#  if_pc:000c if_ir:0010010100000010
#  rf_pc:000a rf_ir:0000000010110001 rf_treg1:0000 rf_treg2:0100 rf_immediate:00b1
#  ex_ir:0011010100000001 ex_result:0100
#  daddr:0100 ddin:0012 ddout:0000 doe:1 dwe:0
#  iaddr:000c idin:04e1 ioe:1
#  alu_ain:0000 alu_bin:0100 alu_op:0001 reg_file_we:1 if_pc_we:0
#  alu_out:0100  ex_forwarding:0012
#  led:000000
#  regs: 0000 0000 0000 0000 0000 0000 0200 0110
#  mem[00-07]: 36 02 37 01 5f 10 35 01
#  mem[08-0f]: 00 b1 25 02 04 e1 04 a5
#  mem[10-17]: 8c 1e 00 00 00 00 00 00
#  mem[18-1f]: 02 b1 01 41 01 05 99 08
#  mem[20-27]: 00 00 00 00 00 00 00 41
#  mem[28-2f]: c7 e0 00 00 00 00 00 00
#  mem[30-37]: 00 d0 c7 fe 00 00 00 00
# 
# ==== clock: 7 ====
#  if_pc:000e if_ir:0000010011100001
#  rf_pc:000c rf_ir:0010010100000010 rf_treg1:0100 rf_treg2:0012 rf_immediate:0002
#  ex_ir:0000000010110001 ex_result:0012
#  daddr:0012 ddin:xxxx ddout:xxxx doe:0 dwe:0
#  iaddr:000e idin:04a5 ioe:1
#  alu_ain:0100 alu_bin:0002 alu_op:0100 reg_file_we:1 if_pc_we:0
#  alu_out:0102  ex_forwarding:0102
#  led:000000
#  regs: 0000 0000 0000 0000 0000 0100 0200 0110
#  mem[00-07]: 36 02 37 01 5f 10 35 01
#  mem[08-0f]: 00 b1 25 02 04 e1 04 a5
#  mem[10-17]: 8c 1e 00 00 00 00 00 00
#  mem[18-1f]: 02 b1 01 41 01 05 99 08
#  mem[20-27]: 00 00 00 00 00 00 00 41
#  mem[28-2f]: c7 e0 00 00 00 00 00 00
#  mem[30-37]: 00 d0 c7 fe 00 00 00 00
# 
# ==== clock: 8 ====
#  if_pc:0010 if_ir:0000010010100101
#  rf_pc:000e rf_ir:0000010011100001 rf_treg1:0000 rf_treg2:0110 rf_immediate:00e1
#  ex_ir:0010010100000010 ex_result:0102
#  daddr:0110 ddin:xxxx ddout:0000 doe:0 dwe:0
#  iaddr:0010 idin:8c1e ioe:1
#  alu_ain:0000 alu_bin:0110 alu_op:0001 reg_file_we:1 if_pc_we:0
#  alu_out:0110  ex_forwarding:0110
#  led:000000
#  regs: 0012 0000 0000 0000 0000 0100 0200 0110
#  mem[00-07]: 36 02 37 01 5f 10 35 01
#  mem[08-0f]: 00 b1 25 02 04 e1 04 a5
#  mem[10-17]: 8c 1e 00 00 00 00 00 00
#  mem[18-1f]: 02 b1 01 41 01 05 99 08
#  mem[20-27]: 00 00 00 00 00 00 00 41
#  mem[28-2f]: c7 e0 00 00 00 00 00 00
#  mem[30-37]: 00 d0 c7 fe 00 00 00 00
# 
# ==== clock: 9 ====
#  if_pc:0012 if_ir:1000110000011110
#  rf_pc:0010 rf_ir:0000010010100101 rf_treg1:0110 rf_treg2:0102 rf_immediate:00a5
#  ex_ir:0000010011100001 ex_result:0110
#  daddr:0102 ddin:xxxx ddout:0110 doe:0 dwe:0
#  iaddr:0012 idin:0000 ioe:1
#  alu_ain:0110 alu_bin:0102 alu_op:0101 reg_file_we:1 if_pc_we:0
#  alu_out:000e  ex_forwarding:000e
#  led:000000
#  regs: 0012 0000 0000 0000 0000 0102 0200 0110
#  mem[00-07]: 36 02 37 01 5f 10 35 01
#  mem[08-0f]: 00 b1 25 02 04 e1 04 a5
#  mem[10-17]: 8c 1e 00 00 00 00 00 00
#  mem[18-1f]: 02 b1 01 41 01 05 99 08
#  mem[20-27]: 00 00 00 00 00 00 00 41
#  mem[28-2f]: c7 e0 00 00 00 00 00 00
#  mem[30-37]: 00 d0 c7 fe 00 00 00 00
# 
# ==== clock: 10 ====
#  if_pc:0014 if_ir:0000000000000000
#  rf_pc:0012 rf_ir:1000110000011110 rf_treg1:000e rf_treg2:0012 rf_immediate:001e
#  ex_ir:0000010010100101 ex_result:000e
#  daddr:0012 ddin:xxxx ddout:xxxx doe:0 dwe:0
#  iaddr:0014 idin:0000 ioe:1
#  alu_ain:0012 alu_bin:001e alu_op:0100 reg_file_we:1 if_pc_we:0
#  alu_out:0030  ex_forwarding:0030
#  led:000000
#  regs: 0012 0000 0000 0000 0110 0102 0200 0110
#  mem[00-07]: 36 02 37 01 5f 10 35 01
#  mem[08-0f]: 00 b1 25 02 04 e1 04 a5
#  mem[10-17]: 8c 1e 00 00 00 00 00 00
#  mem[18-1f]: 02 b1 01 41 01 05 99 08
#  mem[20-27]: 00 00 00 00 00 00 00 41
#  mem[28-2f]: c7 e0 00 00 00 00 00 00
#  mem[30-37]: 00 d0 c7 fe 00 00 00 00
# 
# ==== clock: 11 ====
#  if_pc:0016 if_ir:0000000000000000
#  rf_pc:0014 rf_ir:0000000000000000 rf_treg1:0012 rf_treg2:0012 rf_immediate:0000
#  ex_ir:1000110000011110 ex_result:0030
#  daddr:0012 ddin:xxxx ddout:0012 doe:0 dwe:0
#  iaddr:0016 idin:0000 ioe:1
#  alu_ain:0012 alu_bin:0012 alu_op:0000 reg_file_we:0 if_pc_we:0
#  alu_out:0012  ex_forwarding:0012
#  led:000000
#  regs: 0012 0000 0000 0000 000e 0102 0200 0110
#  mem[00-07]: 36 02 37 01 5f 10 35 01
#  mem[08-0f]: 00 b1 25 02 04 e1 04 a5
#  mem[10-17]: 8c 1e 00 00 00 00 00 00
#  mem[18-1f]: 02 b1 01 41 01 05 99 08
#  mem[20-27]: 00 00 00 00 00 00 00 41
#  mem[28-2f]: c7 e0 00 00 00 00 00 00
#  mem[30-37]: 00 d0 c7 fe 00 00 00 00
# 
# ==== clock: 12 ====
#  if_pc:0018 if_ir:0000000000000000
#  rf_pc:0016 rf_ir:0000000000000000 rf_treg1:0012 rf_treg2:0012 rf_immediate:0000
#  ex_ir:0000000000000000 ex_result:0012
#  daddr:0012 ddin:xxxx ddout:0012 doe:0 dwe:0
#  iaddr:0018 idin:02b1 ioe:1
#  alu_ain:0012 alu_bin:0012 alu_op:0000 reg_file_we:0 if_pc_we:0
#  alu_out:0012  ex_forwarding:0012
#  led:000000
#  regs: 0012 0000 0000 0000 000e 0102 0200 0110
#  mem[00-07]: 36 02 37 01 5f 10 35 01
#  mem[08-0f]: 00 b1 25 02 04 e1 04 a5
#  mem[10-17]: 8c 1e 00 00 00 00 00 00
#  mem[18-1f]: 02 b1 01 41 01 05 99 08
#  mem[20-27]: 00 00 00 00 00 00 00 41
#  mem[28-2f]: c7 e0 00 00 00 00 00 00
#  mem[30-37]: 00 d0 c7 fe 00 00 00 00
# 
# ==== clock: 13 ====
#  if_pc:001a if_ir:0000001010110001
#  rf_pc:0018 rf_ir:0000000000000000 rf_treg1:0012 rf_treg2:0012 rf_immediate:0000
#  ex_ir:0000000000000000 ex_result:0012
#  daddr:0012 ddin:xxxx ddout:0012 doe:0 dwe:0
#  iaddr:001a idin:0141 ioe:1
#  alu_ain:0012 alu_bin:0012 alu_op:0000 reg_file_we:0 if_pc_we:0
#  alu_out:0012  ex_forwarding:0012
#  led:000000
#  regs: 0012 0000 0000 0000 000e 0102 0200 0110
#  mem[00-07]: 36 02 37 01 5f 10 35 01
#  mem[08-0f]: 00 b1 25 02 04 e1 04 a5
#  mem[10-17]: 8c 1e 00 00 00 00 00 00
#  mem[18-1f]: 02 b1 01 41 01 05 99 08
#  mem[20-27]: 00 00 00 00 00 00 00 41
#  mem[28-2f]: c7 e0 00 00 00 00 00 00
#  mem[30-37]: 00 d0 c7 fe 00 00 00 00
# 
# ==== clock: 14 ====
#  if_pc:001c if_ir:0000000101000001
#  rf_pc:001a rf_ir:0000001010110001 rf_treg1:0000 rf_treg2:0102 rf_immediate:00b1
#  ex_ir:0000000000000000 ex_result:0012
#  daddr:0102 ddin:0014 ddout:0000 doe:1 dwe:0
#  iaddr:001c idin:0105 ioe:1
#  alu_ain:0000 alu_bin:0102 alu_op:0001 reg_file_we:0 if_pc_we:0
#  alu_out:0102  ex_forwarding:0014
#  led:000000
#  regs: 0012 0000 0000 0000 000e 0102 0200 0110
#  mem[00-07]: 36 02 37 01 5f 10 35 01
#  mem[08-0f]: 00 b1 25 02 04 e1 04 a5
#  mem[10-17]: 8c 1e 00 00 00 00 00 00
#  mem[18-1f]: 02 b1 01 41 01 05 99 08
#  mem[20-27]: 00 00 00 00 00 00 00 41
#  mem[28-2f]: c7 e0 00 00 00 00 00 00
#  mem[30-37]: 00 d0 c7 fe 00 00 00 00
# 
# ==== clock: 15 ====
#  if_pc:001e if_ir:0000000100000101
#  rf_pc:001c rf_ir:0000000101000001 rf_treg1:0000 rf_treg2:0014 rf_immediate:0041
#  ex_ir:0000001010110001 ex_result:0014
#  daddr:0014 ddin:xxxx ddout:0000 doe:0 dwe:0
#  iaddr:001e idin:9908 ioe:1
#  alu_ain:0000 alu_bin:0014 alu_op:0001 reg_file_we:1 if_pc_we:0
#  alu_out:0014  ex_forwarding:0014
#  led:000000
#  regs: 0012 0000 0000 0000 000e 0102 0200 0110
#  mem[00-07]: 36 02 37 01 5f 10 35 01
#  mem[08-0f]: 00 b1 25 02 04 e1 04 a5
#  mem[10-17]: 8c 1e 00 00 00 00 00 00
#  mem[18-1f]: 02 b1 01 41 01 05 99 08
#  mem[20-27]: 00 00 00 00 00 00 00 41
#  mem[28-2f]: c7 e0 00 00 00 00 00 00
#  mem[30-37]: 00 d0 c7 fe 00 00 00 00
# 
# ==== clock: 16 ====
#  if_pc:0020 if_ir:1001100100001000
#  rf_pc:001e rf_ir:0000000100000101 rf_treg1:0014 rf_treg2:0012 rf_immediate:0005
#  ex_ir:0000000101000001 ex_result:0014
#  daddr:0012 ddin:xxxx ddout:0014 doe:0 dwe:0
#  iaddr:0020 idin:0000 ioe:1
#  alu_ain:0014 alu_bin:0012 alu_op:0101 reg_file_we:1 if_pc_we:0
#  alu_out:0002  ex_forwarding:0002
#  led:000000
#  regs: 0012 0000 0014 0000 000e 0102 0200 0110
#  mem[00-07]: 36 02 37 01 5f 10 35 01
#  mem[08-0f]: 00 b1 25 02 04 e1 04 a5
#  mem[10-17]: 8c 1e 00 00 00 00 00 00
#  mem[18-1f]: 02 b1 01 41 01 05 99 08
#  mem[20-27]: 00 00 00 00 00 00 00 41
#  mem[28-2f]: c7 e0 00 00 00 00 00 00
#  mem[30-37]: 00 d0 c7 fe 00 00 00 00
# 
# ==== clock: 17 ====
#  if_pc:0022 if_ir:0000000000000000
#  rf_pc:0020 rf_ir:1001100100001000 rf_treg1:0002 rf_treg2:0012 rf_immediate:0008
#  ex_ir:0000000100000101 ex_result:0002
#  daddr:0012 ddin:xxxx ddout:xxxx doe:0 dwe:0
#  iaddr:0022 idin:0000 ioe:1
#  alu_ain:0020 alu_bin:0008 alu_op:0100 reg_file_we:1 if_pc_we:0
#  alu_out:0028  ex_forwarding:0028
#  led:000000
#  regs: 0012 0014 0014 0000 000e 0102 0200 0110
#  mem[00-07]: 36 02 37 01 5f 10 35 01
#  mem[08-0f]: 00 b1 25 02 04 e1 04 a5
#  mem[10-17]: 8c 1e 00 00 00 00 00 00
#  mem[18-1f]: 02 b1 01 41 01 05 99 08
#  mem[20-27]: 00 00 00 00 00 00 00 41
#  mem[28-2f]: c7 e0 00 00 00 00 00 00
#  mem[30-37]: 00 d0 c7 fe 00 00 00 00
# 
# ==== clock: 18 ====
#  if_pc:0024 if_ir:0000000000000000
#  rf_pc:0022 rf_ir:0000000000000000 rf_treg1:0012 rf_treg2:0012 rf_immediate:0000
#  ex_ir:1001100100001000 ex_result:0028
#  daddr:0012 ddin:xxxx ddout:0012 doe:0 dwe:0
#  iaddr:0024 idin:0000 ioe:1
#  alu_ain:0012 alu_bin:0012 alu_op:0000 reg_file_we:0 if_pc_we:1
#  alu_out:0012  ex_forwarding:0012
#  led:000000
#  regs: 0012 0002 0014 0000 000e 0102 0200 0110
#  mem[00-07]: 36 02 37 01 5f 10 35 01
#  mem[08-0f]: 00 b1 25 02 04 e1 04 a5
#  mem[10-17]: 8c 1e 00 00 00 00 00 00
#  mem[18-1f]: 02 b1 01 41 01 05 99 08
#  mem[20-27]: 00 00 00 00 00 00 00 41
#  mem[28-2f]: c7 e0 00 00 00 00 00 00
#  mem[30-37]: 00 d0 c7 fe 00 00 00 00
# 
# ==== clock: 19 ====
#  if_pc:0028 if_ir:0000000000000000
#  rf_pc:0024 rf_ir:0000000000000000 rf_treg1:0012 rf_treg2:0012 rf_immediate:0000
#  ex_ir:0000000000000000 ex_result:0012
#  daddr:0012 ddin:xxxx ddout:0012 doe:0 dwe:0
#  iaddr:0028 idin:c7e0 ioe:1
#  alu_ain:0012 alu_bin:0012 alu_op:0000 reg_file_we:0 if_pc_we:0
#  alu_out:0012  ex_forwarding:0012
#  led:000000
#  regs: 0012 0002 0014 0000 000e 0102 0200 0110
#  mem[00-07]: 36 02 37 01 5f 10 35 01
#  mem[08-0f]: 00 b1 25 02 04 e1 04 a5
#  mem[10-17]: 8c 1e 00 00 00 00 00 00
#  mem[18-1f]: 02 b1 01 41 01 05 99 08
#  mem[20-27]: 00 00 00 00 00 00 00 41
#  mem[28-2f]: c7 e0 00 00 00 00 00 00
#  mem[30-37]: 00 d0 c7 fe 00 00 00 00
# 
# ==== clock: 20 ====
#  if_pc:002a if_ir:1100011111100000
#  rf_pc:0028 rf_ir:0000000000000000 rf_treg1:0012 rf_treg2:0012 rf_immediate:0000
#  ex_ir:0000000000000000 ex_result:0012
#  daddr:0012 ddin:xxxx ddout:0012 doe:0 dwe:0
#  iaddr:002a idin:0000 ioe:1
#  alu_ain:0012 alu_bin:0012 alu_op:0000 reg_file_we:0 if_pc_we:0
#  alu_out:0012  ex_forwarding:0012
#  led:000000
#  regs: 0012 0002 0014 0000 000e 0102 0200 0110
#  mem[00-07]: 36 02 37 01 5f 10 35 01
#  mem[08-0f]: 00 b1 25 02 04 e1 04 a5
#  mem[10-17]: 8c 1e 00 00 00 00 00 00
#  mem[18-1f]: 02 b1 01 41 01 05 99 08
#  mem[20-27]: 00 00 00 00 00 00 00 41
#  mem[28-2f]: c7 e0 00 00 00 00 00 00
#  mem[30-37]: 00 d0 c7 fe 00 00 00 00
# 
# ==== clock: 21 ====
#  if_pc:002c if_ir:0000000000000000
#  rf_pc:002a rf_ir:1100011111100000 rf_treg1:0110 rf_treg2:0110 rf_immediate:ffe0
#  ex_ir:0000000000000000 ex_result:0012
#  daddr:0110 ddin:xxxx ddout:xxxx doe:0 dwe:0
#  iaddr:002c idin:0000 ioe:1
#  alu_ain:002a alu_bin:ffe0 alu_op:0100 reg_file_we:0 if_pc_we:0
#  alu_out:000a  ex_forwarding:000a
#  led:000000
#  regs: 0012 0002 0014 0000 000e 0102 0200 0110
#  mem[00-07]: 36 02 37 01 5f 10 35 01
#  mem[08-0f]: 00 b1 25 02 04 e1 04 a5
#  mem[10-17]: 8c 1e 00 00 00 00 00 00
#  mem[18-1f]: 02 b1 01 41 01 05 99 08
#  mem[20-27]: 00 00 00 00 00 00 00 41
#  mem[28-2f]: c7 e0 00 00 00 00 00 00
#  mem[30-37]: 00 d0 c7 fe 00 00 00 00
# 
# ==== clock: 22 ====
#  if_pc:002e if_ir:0000000000000000
#  rf_pc:002c rf_ir:0000000000000000 rf_treg1:0012 rf_treg2:0012 rf_immediate:0000
#  ex_ir:1100011111100000 ex_result:000a
#  daddr:0012 ddin:xxxx ddout:0012 doe:0 dwe:0
#  iaddr:002e idin:0000 ioe:1
#  alu_ain:0012 alu_bin:0012 alu_op:0000 reg_file_we:0 if_pc_we:1
#  alu_out:0012  ex_forwarding:0012
#  led:000000
#  regs: 0012 0002 0014 0000 000e 0102 0200 0110
#  mem[00-07]: 36 02 37 01 5f 10 35 01
#  mem[08-0f]: 00 b1 25 02 04 e1 04 a5
#  mem[10-17]: 8c 1e 00 00 00 00 00 00
#  mem[18-1f]: 02 b1 01 41 01 05 99 08
#  mem[20-27]: 00 00 00 00 00 00 00 41
#  mem[28-2f]: c7 e0 00 00 00 00 00 00
#  mem[30-37]: 00 d0 c7 fe 00 00 00 00
# 
# ==== clock: 23 ====
#  if_pc:000a if_ir:0000000000000000
#  rf_pc:002e rf_ir:0000000000000000 rf_treg1:0012 rf_treg2:0012 rf_immediate:0000
#  ex_ir:0000000000000000 ex_result:0012
#  daddr:0012 ddin:xxxx ddout:0012 doe:0 dwe:0
#  iaddr:000a idin:2502 ioe:1
#  alu_ain:0012 alu_bin:0012 alu_op:0000 reg_file_we:0 if_pc_we:0
#  alu_out:0012  ex_forwarding:0012
#  led:000000
#  regs: 0012 0002 0014 0000 000e 0102 0200 0110
#  mem[00-07]: 36 02 37 01 5f 10 35 01
#  mem[08-0f]: 00 b1 25 02 04 e1 04 a5
#  mem[10-17]: 8c 1e 00 00 00 00 00 00
#  mem[18-1f]: 02 b1 01 41 01 05 99 08
#  mem[20-27]: 00 00 00 00 00 00 00 41
#  mem[28-2f]: c7 e0 00 00 00 00 00 00
#  mem[30-37]: 00 d0 c7 fe 00 00 00 00
# 
# ==== clock: 24 ====
#  if_pc:000c if_ir:0010010100000010
#  rf_pc:000a rf_ir:0000000000000000 rf_treg1:0012 rf_treg2:0012 rf_immediate:0000
#  ex_ir:0000000000000000 ex_result:0012
#  daddr:0012 ddin:xxxx ddout:0012 doe:0 dwe:0
#  iaddr:000c idin:04e1 ioe:1
#  alu_ain:0012 alu_bin:0012 alu_op:0000 reg_file_we:0 if_pc_we:0
#  alu_out:0012  ex_forwarding:0012
#  led:000000
#  regs: 0012 0002 0014 0000 000e 0102 0200 0110
#  mem[00-07]: 36 02 37 01 5f 10 35 01
#  mem[08-0f]: 00 b1 25 02 04 e1 04 a5
#  mem[10-17]: 8c 1e 00 00 00 00 00 00
#  mem[18-1f]: 02 b1 01 41 01 05 99 08
#  mem[20-27]: 00 00 00 00 00 00 00 41
#  mem[28-2f]: c7 e0 00 00 00 00 00 00
#  mem[30-37]: 00 d0 c7 fe 00 00 00 00
# 
# ==== clock: 25 ====
#  if_pc:000e if_ir:0000010011100001
#  rf_pc:000c rf_ir:0010010100000010 rf_treg1:0102 rf_treg2:0012 rf_immediate:0002
#  ex_ir:0000000000000000 ex_result:0012
#  daddr:0012 ddin:xxxx ddout:xxxx doe:0 dwe:0
#  iaddr:000e idin:04a5 ioe:1
#  alu_ain:0102 alu_bin:0002 alu_op:0100 reg_file_we:0 if_pc_we:0
#  alu_out:0104  ex_forwarding:0104
#  led:000000
#  regs: 0012 0002 0014 0000 000e 0102 0200 0110
#  mem[00-07]: 36 02 37 01 5f 10 35 01
#  mem[08-0f]: 00 b1 25 02 04 e1 04 a5
#  mem[10-17]: 8c 1e 00 00 00 00 00 00
#  mem[18-1f]: 02 b1 01 41 01 05 99 08
#  mem[20-27]: 00 00 00 00 00 00 00 41
#  mem[28-2f]: c7 e0 00 00 00 00 00 00
#  mem[30-37]: 00 d0 c7 fe 00 00 00 00
# 
# ==== clock: 26 ====
#  if_pc:0010 if_ir:0000010010100101
#  rf_pc:000e rf_ir:0000010011100001 rf_treg1:000e rf_treg2:0110 rf_immediate:00e1
#  ex_ir:0010010100000010 ex_result:0104
#  daddr:0110 ddin:xxxx ddout:000e doe:0 dwe:0
#  iaddr:0010 idin:8c1e ioe:1
#  alu_ain:000e alu_bin:0110 alu_op:0001 reg_file_we:1 if_pc_we:0
#  alu_out:0110  ex_forwarding:0110
#  led:000000
#  regs: 0012 0002 0014 0000 000e 0102 0200 0110
#  mem[00-07]: 36 02 37 01 5f 10 35 01
#  mem[08-0f]: 00 b1 25 02 04 e1 04 a5
#  mem[10-17]: 8c 1e 00 00 00 00 00 00
#  mem[18-1f]: 02 b1 01 41 01 05 99 08
#  mem[20-27]: 00 00 00 00 00 00 00 41
#  mem[28-2f]: c7 e0 00 00 00 00 00 00
#  mem[30-37]: 00 d0 c7 fe 00 00 00 00
# 
# ==== clock: 27 ====
#  if_pc:0012 if_ir:1000110000011110
#  rf_pc:0010 rf_ir:0000010010100101 rf_treg1:0110 rf_treg2:0104 rf_immediate:00a5
#  ex_ir:0000010011100001 ex_result:0110
#  daddr:0104 ddin:xxxx ddout:0110 doe:0 dwe:0
#  iaddr:0012 idin:0000 ioe:1
#  alu_ain:0110 alu_bin:0104 alu_op:0101 reg_file_we:1 if_pc_we:0
#  alu_out:000c  ex_forwarding:000c
#  led:000000
#  regs: 0012 0002 0014 0000 000e 0104 0200 0110
#  mem[00-07]: 36 02 37 01 5f 10 35 01
#  mem[08-0f]: 00 b1 25 02 04 e1 04 a5
#  mem[10-17]: 8c 1e 00 00 00 00 00 00
#  mem[18-1f]: 02 b1 01 41 01 05 99 08
#  mem[20-27]: 00 00 00 00 00 00 00 41
#  mem[28-2f]: c7 e0 00 00 00 00 00 00
#  mem[30-37]: 00 d0 c7 fe 00 00 00 00
# 
# ==== clock: 28 ====
#  if_pc:0014 if_ir:0000000000000000
#  rf_pc:0012 rf_ir:1000110000011110 rf_treg1:000c rf_treg2:0012 rf_immediate:001e
#  ex_ir:0000010010100101 ex_result:000c
#  daddr:0012 ddin:xxxx ddout:xxxx doe:0 dwe:0
#  iaddr:0014 idin:0000 ioe:1
#  alu_ain:0012 alu_bin:001e alu_op:0100 reg_file_we:1 if_pc_we:0
#  alu_out:0030  ex_forwarding:0030
#  led:000000
#  regs: 0012 0002 0014 0000 0110 0104 0200 0110
#  mem[00-07]: 36 02 37 01 5f 10 35 01
#  mem[08-0f]: 00 b1 25 02 04 e1 04 a5
#  mem[10-17]: 8c 1e 00 00 00 00 00 00
#  mem[18-1f]: 02 b1 01 41 01 05 99 08
#  mem[20-27]: 00 00 00 00 00 00 00 41
#  mem[28-2f]: c7 e0 00 00 00 00 00 00
#  mem[30-37]: 00 d0 c7 fe 00 00 00 00
# 
# ==== clock: 29 ====
#  if_pc:0016 if_ir:0000000000000000
#  rf_pc:0014 rf_ir:0000000000000000 rf_treg1:0012 rf_treg2:0012 rf_immediate:0000
#  ex_ir:1000110000011110 ex_result:0030
#  daddr:0012 ddin:xxxx ddout:0012 doe:0 dwe:0
#  iaddr:0016 idin:0000 ioe:1
#  alu_ain:0012 alu_bin:0012 alu_op:0000 reg_file_we:0 if_pc_we:0
#  alu_out:0012  ex_forwarding:0012
#  led:000000
#  regs: 0012 0002 0014 0000 000c 0104 0200 0110
#  mem[00-07]: 36 02 37 01 5f 10 35 01
#  mem[08-0f]: 00 b1 25 02 04 e1 04 a5
#  mem[10-17]: 8c 1e 00 00 00 00 00 00
#  mem[18-1f]: 02 b1 01 41 01 05 99 08
#  mem[20-27]: 00 00 00 00 00 00 00 41
#  mem[28-2f]: c7 e0 00 00 00 00 00 00
#  mem[30-37]: 00 d0 c7 fe 00 00 00 00
# 
# ==== clock: 30 ====
#  if_pc:0018 if_ir:0000000000000000
#  rf_pc:0016 rf_ir:0000000000000000 rf_treg1:0012 rf_treg2:0012 rf_immediate:0000
#  ex_ir:0000000000000000 ex_result:0012
#  daddr:0012 ddin:xxxx ddout:0012 doe:0 dwe:0
